Name,Division,BodyweightKg,WeightClassKg,AgeClass,Squat1Kg,Squat2Kg,Squat3Kg,Best3SquatKg,Bench1Kg,Bench2Kg,Bench3Kg,Best3BenchKg,Deadlift1Kg,Deadlift2Kg,Deadlift3Kg,Best3DeadliftKg,TotalKg,Place,Sex,Event,Equipment
Lenka Pilnikova,F-C-Senior,46.7,47,23-39,75,80,85,85,62.5,-65,65,65,115,120,-126,120,270,1,F,SBD,Raw
Adele Tickle,F-C-Senior,50.6,52,23-39,105,110,-112.5,110,57.5,60,-62.5,60,125,135,142.5,142.5,312.5,1,F,SBD,Raw
Danielle Firth,F-C-Senior,51.1,52,23-39,105,112.5,-117.5,112.5,50,52.5,-55,52.5,120,125,130,130,295,2,F,SBD,Raw
Natalie Banks,F-C-Senior,51.2,52,23-39,85,87.5,-90,87.5,57.5,-60.5,-61,57.5,120,125,132.5,132.5,277.5,3,F,SBD,Raw
Victoria Mirceta,F-C-Senior,50.9,52,23-39,90,95,-100,95,57.5,60.5,-61,60.5,-115,115,120,120,275.5,4,F,SBD,Raw
Megan Cotcher,F-C-Senior,52.1,57,18-23,95,105,107.5,107.5,57.5,-60,60,60,120,-132.5,-132.5,120,287.5,1,F,SBD,Raw
Catherine Sweetman,F-C-Senior,62.5,63,18-23,85,-90,90,90,60,62.5,-65,62.5,115,120,125,125,277.5,1,F,SBD,Raw
Genevieve Collins,F-C-Senior,68,72,23-39,137.5,140,142.5,142.5,82.5,-85,-85,82.5,147.5,152.5,-155,152.5,377.5,1,F,SBD,Raw
Laura Battersby,F-C-Senior,68.6,72,23-39,95,97.5,-100,97.5,60,-62.5,-62.5,60,-140,145,-147.5,145,302.5,2,F,SBD,Raw
Amy Pitman,F-C-Senior,69.2,72,18-23,90,97.5,-102.5,97.5,45,50,-52.5,50,110,120,125,125,272.5,3,F,SBD,Raw
Pamela Fellows,F-C-Senior,78.8,84,23-39,130,137.5,142.5,142.5,-70,70,-77.5,70,157.5,165,-170,165,377.5,1,F,SBD,Raw
Katie Yates,F-C-Senior,83.4,84,18-23,125,132.5,-140,132.5,62.5,-67.5,-67.5,62.5,150,155,-160,155,350,2,F,SBD,Raw
Kelly Kay,F-C-Senior,81.7,84,23-39,125,130,-135,130,-60,60,-65,60,135,142.5,145,145,335,3,F,SBD,Raw
Sarah Shaw,F-C-Senior,82.9,84,39-49,90,100,105,105,70,75,80,80,130,140,145,145,330,4,F,SBD,Raw
Adele Fothersgill,F-C-Senior,83.3,84,39-49,110,117.5,-122.5,117.5,-70,70,73,73,120,-125,-125,120,310.5,5,F,SBD,Raw
Nichola McCloud,F-C-Senior,75.6,84,23-39,100,110,-115,110,50,57.5,-60,57.5,125,135,140,140,307.5,6,F,SBD,Raw
Lucy Jackson,F-C-Senior,101.4,84+,18-23,-190,190,-192.5,190,90,97.5,102.5,102.5,190,-195,-195,190,482.5,1,F,SBD,Raw
Alex Foden,F-C-Senior,109.6,84+,23-39,165,-175,-175,165,85,87.5,90,90,150,160,170,170,425,2,F,SBD,Raw
Lisa Pilkington,F-C-Senior,110.3,84+,39-49,105,-115,-120,105,80,90,-92.5,90,125,135,145,145,340,3,F,SBD,Raw
Jo Copeland,F-C-Senior,111.4,84+,23-39,95,-105,105,105,-60,60,65,65,130,140,150,150,320,4,F,SBD,Raw
Vicky Byrne,F-C-Senior,90.4,84+,23-39,-150,-150,-150,,60,-65,-65,60,170,175,-180,175,,DQ,F,SBD,Raw
Jonathan Zatman,M-C-Senior,65.9,66,18-23,167.5,185,-200,185,95,-102.5,-102.5,95,160,175,-185,175,455,1,M,SBD,Raw
Adam Mack,M-C-Senior,72.5,74,23-39,165,175,-182.5,175,112.5,-117.5,-117.5,112.5,210,222.5,230,230,517.5,1,M,SBD,Raw
Chris Eaton,M-C-Senior,71,74,23-39,120,130,137.5,137.5,105,112.5,117.5,117.5,175,185,195,195,450,2,M,SBD,Raw
Chris Neely,M-C-Senior,71.3,74,23-39,135,150,155,155,95,-105,-105,95,165,185,192.5,192.5,442.5,3,M,SBD,Raw
Joe Gould,M-C-Senior,71.1,74,14-18,137.5,145,152.5,152.5,80,87.5,,87.5,160,172.5,177.5,177.5,417.5,4,M,SBD,Raw
Michael Giles,M-C-Senior,82,83,23-39,210,220,-225,220,145,-150,150,150,245,255,265,265,635,1,M,SBD,Raw
Raymond Thompson,M-C-Senior,81.6,83,23-39,215,222.5,-230,222.5,132.5,140,-145,140,252.5,260,-265,260,622.5,2,M,SBD,Raw
Ian Shaw,M-C-Senior,82.3,83,39-49,205,-220,-220,205,117.5,-122.5,-122.5,117.5,250.5,275,280.5,280.5,603,3,M,SBD,Raw
Michael Wynn,M-C-Senior,82.9,83,18-23,195,207.5,212.5,212.5,117.5,130,-135,130,220,235,242.5,242.5,585,4,M,SBD,Raw
James Chapman,M-C-Senior,81.8,83,23-39,180,-190,190,190,117.5,122.5,-125,122.5,220,-230,-230,220,532.5,5,M,SBD,Raw
Michael Roskell,M-C-Senior,80.3,83,23-39,167.5,177.5,187.5,187.5,102.5,107.5,112.5,112.5,190,207.5,220,220,520,6,M,SBD,Raw
Nathan Hill,M-C-Senior,76.9,83,18-23,-150,155,-165,155,-120,125,-130,125,205,215,-225,215,495,7,M,SBD,Raw
Max Williams,M-C-Senior,82.1,83,14-18,140,150,-157.5,150,85,92.5,-100,92.5,170,190,200,200,442.5,8,M,SBD,Raw
Mathew Thomas,M-C-Senior,80.2,83,18-23,115,122.5,130,130,72.5,77.5,-85,77.5,160,170,175,175,382.5,9,M,SBD,Raw
Aidan Sharp,M-C-Senior,87.4,93,18-23,200,210,217.5,217.5,130,-142.5,142.5,142.5,250,-270,-270,250,610,1,M,SBD,Raw
Andy Evans,M-C-Senior,86.8,93,23-39,170,180,195,195,115,125,130,130,220,235,250,250,575,2,M,SBD,Raw
David Clifford,M-C-Senior,86.8,93,50-59,190,200,210,210,122.5,128,132.5,132.5,230,-243,-243,230,572.5,3,M,SBD,Raw
Joe Byrne,M-C-Senior,90.6,93,23-39,207.5,215,,215,135,-140,,135,222.5,-227.5,,222.5,572.5,4,M,SBD,Raw
Johnny Knight,M-C-Senior,93,93,23-39,170,180,190,190,120,125,130,130,200,215,222.5,222.5,542.5,5,M,SBD,Raw
Matthew Dorset,M-C-Senior,71.8,74,18-23,145,-155,155,155,-90,-95,-95,,167.5,172.5,182.5,182.5,,DQ,M,SBD,Raw
Theo Watton,M-C-Senior,87.8,93,14-18,-180,180,195,195,-110,-120,-120,,200,215,220,220,,DQ,M,SBD,Raw
Colin Luby,M-C-Guest,95.8,105,23-39,-110,-112.5,-115,,-90,-90,-90,,-150,150,155,155,,DQ,M,SBD,Raw
David Penney,M-C-Senior,85.2,93,50-59,,,,,105,110,115,115,,,,,115,1,M,B,Raw
Marvin Turner,M-C-Sen,104.1,105,23-39,235,250,-260,250,172.5,182.5,-190,182.5,282.5,300,-310,300,732.5,1,M,SBD,Raw
Chris Jones,M-C-Sen,104.3,105,23-39,200,210,215,215,140,145,150,150,220,-230,-230,220,585,2,M,SBD,Raw
Dominic Myers,M-C-Sen,99.8,105,23-39,160,172.5,185,185,125,135,-145,135,165,175,185,185,505,3,M,SBD,Raw
James Allen,M-C-Sen,103.7,105,18-23,180,-187.5,-187.5,180,125,-130,-130,125,170,-172.5,-175,170,475,4,M,SBD,Raw
Tom Griffths,M-C-Sen,114.6,120,23-39,227.5,240,250,250,147.5,157.5,162.5,162.5,257.5,275,-287.5,275,687.5,1,M,SBD,Raw
Tamas Kurcz,M-C-Sen,116.6,120,23-39,215,230,-240,230,165,170,-175,170,270,285,-300,285,685,2,M,SBD,Raw
James Hannon,M-C-Sen,111.8,120,23-39,225,235,-242.5,235,145,155,-162.5,155,245,255,-265,255,645,3,M,SBD,Raw
Wayne Phillips,M-C-Sen,112.2,120,50-59,200,205,215,215,155,160,165,165,245,255,-260,255,635,4,M,SBD,Raw
Scott Hedges,M-C-Sen,117.5,120,23-39,192.5,207.5,-220,207.5,90,97.5,102.5,102.5,210,225,232.5,232.5,542.5,5,M,SBD,Raw
Stephen Irving,M-C-Sen,119.2,120,39-49,175,177.5,-180,177.5,105,107.5,-112.5,107.5,220,-222.5,-222.5,220,505,6,M,SBD,Raw
Tom Render,M-C-Sen,105.1,120,18-23,155,167.5,175,175,102.5,110,115,115,200,212.5,-220,212.5,502.5,7,M,SBD,Raw
Trevor Walker,M-C-Sen,117.1,120,70-79,-130,130,135,135,85,90,95,95,185,190,196,196,426,8,M,SBD,Raw
Andy Foster,M-C-Sen,143.1,120+,23-39,280,290,-297.5,290,185,192.5,197.5,197.5,290,-300,-300,290,777.5,1,M,SBD,Raw
Ross Shahin-Ajerlo,M-C-Sen,122.6,120+,23-39,235,250,260,260,180,190,200,200,280,300,310,310,770,2,M,SBD,Raw
Frazer Pennington,M-C-Sen,130.3,120+,18-23,300,-315,,300,175,185,-195,185,270,-282.5,-282.5,270,755,3,M,SBD,Raw
Mark Edwards,M-C-Sen,125.1,120+,39-49,200,210,240.5,240.5,140,148,155,155,220,258,265,265,660.5,4,M,SBD,Raw
Duncan Sharp,M-E-Gst,118.8,120,23-39,,,,,290,310,-320,310,,,,,310,G,M,B,Single-ply
