Place,Age,BodyweightKg,WeightClassKg,Division,Name,Sex,Equipment,Event,Country,Squat1Kg,Squat2Kg,Squat3Kg,Squat4Kg,Best3SquatKg,Bench1Kg,Bench2Kg,Bench3Kg,Best3BenchKg,Deadlift1Kg,Deadlift2Kg,Deadlift3Kg,Best3DeadliftKg,TotalKg
1,,51.6,52,Open,Hideaki Inaba,M,Wraps,SBD,JPN,,207.5,210,,210,,105,,105,215,-225,,215,530
2,31,51.6,52,Open,John Redding,M,Wraps,SBD,USA,182.5,192.5,195,,195,87.5,,,87.5,195,,,195,477.5
3,,51.5,52,Open,Juhani Niemi,M,Wraps,SBD,FIN,,,,,170,,,,110,,,,185,465
4,,51.9,52,Open,Narenda Bhairo,M,Wraps,SBD,GBR,,,,,167.5,,,,102.5,,,,190,460
5,,51,52,Open,Aimo Tuomisto,M,Wraps,SBD,FIN,,,,,170,,,,100,,,,180,450
6,,51.7,52,Open,Haruji Watanabe,M,Wraps,SBD,JPN,,,,,145,,,,102.5,,,,190,437.5
1,19,56,56,Open,Lamar Gant,M,Wraps,SBD,USA,182.5,-187.5,-187.5,,182.5,-122.5,122.5,127.5,127.5,232.5,242.5,-252.5,242.5,552.5
2,,55.8,56,Open,Yrjö Haatanen,M,Wraps,SBD,FIN,,,,,175,,,,115,,,,205,495
3,,55.2,56,Open,Viljo Issakainen,M,Wraps,SBD,FIN,,,,,165,,,,100,,,,220,485
4,,55.6,56,Open,Harold Norville,M,Wraps,SBD,CAN,,,,,167.5,,,,97.5,,,,197.5,462.5
5,,54.9,56,Open,Subrata Dutta,M,Wraps,SBD,IND,,,,,140,,,,105,,,,190,435
6,,52.2,56,Open,Stefano Finateri,M,Wraps,SBD,CAN,,,,,147.5,,,,82.5,,,,172.5,402.5
7,,54.9,56,Open,D. Vincent,M,Wraps,SBD,AUS,,,,,117.5,,,,95,,,,162.5,375
1,,59.5,60,Open,Eddie Pengelly,M,Wraps,SBD,GBR,,,202.5,,202.5,,,127.5,127.5,215,-262.5,-262.5,215,545
2,,59.2,60,Open,Yoshinobu Tominaga,M,Wraps,SBD,JPN,,,172.5,,172.5,140,150,155,155,180,195,,195,522.5
3,,58.5,60,Open,Luis Ramos,M,Wraps,SBD,PUR,,,,,165,,,,122.5,,,,215,502.5
4,,59.4,60,Open,Ove Nilsson,M,Wraps,SBD,SWE,,,,,180,,,,112.5,,,,205,497.5
5,,59.3,60,Open,Jerry Marentette,M,Wraps,SBD,CAN,,,,,157.5,,,,107.5,,,,207.5,472.5
6,,58.5,60,Open,A. Miwape,M,Wraps,SBD,ZAM,,,,,165,,,,97.5,,,,207.5,470
7,,56.7,60,Open,R. Basak,M,Wraps,SBD,IND,,,,,130,,,,90,,,,165,385
1,,67.3,67.5,Open,Mauro Di Pasquale,M,Wraps,SBD,CAN,222.5,230,-235,,230,132.5,137.5,-140,137.5,250,262.5,,262.5,630
2,,66.9,67.5,Open,Dhuram Pal,M,Wraps,SBD,GBR,220,,,,220,,,,150,235,-240,,235,605
3,,66.6,67.5,Open,Dennis Attland,M,Wraps,SBD,SWE,,,207.5,,207.5,,,145,145,220,230,235,235,587.5
4,,66.8,67.5,Open,Trevor Kirton,M,Wraps,SBD,GBR,,,,,205,,,,135,,,,240,580
5,,66.8,67.5,Open,Tatsufumi Nakao,M,Wraps,SBD,JPN,,,,,185,,,,155,,,,207.5,547.5
6,,65.9,67.5,Open,T. Nagano,M,Wraps,SBD,JPN,,,,,200,,,,135,,,,205,540
7,,66.1,67.5,Open,J. Geeves,M,Wraps,SBD,AUS,,,,,180,,,,120,,,,220,520
8,,66,67.5,Open,T. Savich,M,Wraps,SBD,AUS,,,,,160,,,,100,,,,255,515
9,,66.3,67.5,Open,B. Das,M,Wraps,SBD,IND,,,,,185,,,,125,,,,175,485
1,,73.75,75,Open,Bill West,M,Wraps,SBD,GBR,245,250,255,,255,,,137.5,137.5,257.5,272.5,285,285,677.5
2,,74.25,75,Open,Tony Carpino,M,Wraps,SBD,USA,237.5,-247.5,-247.5,,237.5,,170,-172.5,170,260,270,-277.5,270,677.5
3,,74.75,75,Open,Lars Backlund,M,Wraps,SBD,SWE,,237.5,-242.5,,237.5,,170,175,175,250,260,-265,260,672.5
4,,74,75,Open,Ron Coleman,M,Wraps,SBD,SWE,,,,,230,,,,155,,,,242.5,627.5
5,,73.25,75,Open,Y. Nakagawa,M,Wraps,SBD,JPN,,,,,220,,,,155,,,,240,615
6,,75,75,Open,Veikko Levander,M,Wraps,SBD,FIN,,,,,212.5,,,,150,,,,250,612.5
7,,74.75,75,Open,Bruce Waddell,M,Wraps,SBD,AUS,,,,,227.5,,,,127.5,,,,255,610
8,,74.25,75,Open,T. Ichimaru,M,Wraps,SBD,JPN,,,,,220,,,,165,,,,200,585
9,,74,75,Open,Michael Barry,M,Wraps,SBD,AUS,,,,,205,,,,112.5,,,,250,567.5
10,,74.5,75,Open,Mike Lukich,M,Wraps,SBD,CAN,,,,,195,,,,125,,,,240,560
DQ,,74.5,75,Open,Peter Fiore,M,Wraps,SBD,ZAM,245,255,260,,260,157.5,162.5,167.5,167.5,-250,-250,-250,,
DQ,,69.75,75,Open,Rickey Dale Crain,M,Wraps,SBD,USA,240,-245,,,240,-135,135,-140,135,,,,,
1,,82.3,82.5,Open,Ron Collins,M,Wraps,SBD,GBR,305,-322.5,-322.5,,305,185,-192.5,,185,310,327.5,,327.5,817.5
2,,80.5,82.5,Open,Walter Thomas,M,Wraps,SBD,USA,272.5,295,-305,,295,182.5,192.5,-195,192.5,295,-310,-312.5,295,782.5
3,,81.3,82.5,Open,Tom Campbell,M,Wraps,SBD,CAN,-275,275,290,,290,185,195,-200,195,282.5,-300,-312.5,282.5,767.5
4,,82.3,82.5,Open,Unto Honkonen,M,Wraps,SBD,FIN,,,,,245,,,,175,,,,280,700
5,,81.2,82.5,Open,Lars Björck,M,Wraps,SBD,SWE,,,,,245,,,,170,,,,275,690
6,,81.1,82.5,Open,M. Inque,M,Wraps,SBD,JPN,,,,,230,,,,155,,,,240,625
7,,77.1,82.5,Open,K. Bolar,M,Wraps,SBD,IND,,,,,185,,,,110,,,,222.5,517.5
1,,90,90,Open,Larry Pacifico,M,Wraps,SBD,USA,297.5,312.5,-320,,312.5,160,185,,185,307.5,320,-330,320,817.5
2,,89.5,90,Open,Eamon Toal,M,Wraps,SBD,GBR,260,280,-290,,280,180,-192.5,192.5,192.5,290,310,322.5,322.5,795
3,,90,90,Open,Ray Yvander,M,Wraps,SBD,SWE,240,250,255,,255,165,170,175,175,287.5,300,315,315,745
4,,90,90,Open,Reijo Kiviranta,M,Wraps,SBD,FIN,,,,,255,,,,160,,,,287.5,702.5
5,,89.75,90,Open,Andrew Page,M,Wraps,SBD,AUS,,,,,265,,,,162.5,,,,272.5,700
6,,90,90,Open,P. Secker,M,Wraps,SBD,AUS,,,,,205,,,,127.5,,,,285,617.5
1,,99,100,Open,Paul Jordan,M,Wraps,SBD,GBR,,,,,335,,,,212.5,305,312.5,-317.5,312.5,860
2,,97.65,100,Open,Vince Anello,M,Wraps,SBD,USA,,,,,287.5,,,,195,340,-375,-377.5,340,822.5
3,,100,100,Open,Tony Fitton,M,Wraps,SBD,GBR,,317.5,-320,,317.5,180,-185,185,185,310,-320,-320,310,812.5
4,,99.6,100,Open,Ulf Morin,M,Wraps,SBD,SWE,,,,,267.5,,,,200,,,,295,762.5
5,,99.65,100,Open,E. Jack,M,Wraps,SBD,CAN,,,,,272.5,,,,172.5,,,,285,730
6,,99.5,100,Open,Raimo Halvorsén,M,Wraps,SBD,FIN,,,,,255,,,,182.5,,,,280,717.5
7,,99.65,100,Open,Shoji Nakamura,M,Wraps,SBD,JPN,,,,,260,,,,170,,,,250,680
8,,96.75,100,Open,Singh Jadav,M,Wraps,SBD,IND,,,,,220,,,,152.5,,,,240,612.5
9,,97.75,100,Open,Charles Madondo,M,Wraps,SBD,ZAM,,,,,200,,,,102.5,,,,215,517.5
1,,109.1,110,Open,Doug Young,M,Wraps,SBD,USA,305,320,-325,,320,232.5,245,255,255,335,-347.5,,335,910
2,32,109.2,110,Open,Hannu Saarelainen,M,Wraps,SBD,FIN,,,,,307.5,,,,230,,322.5,,322.5,860
3,,104.1,110,Open,Marvin Phillips,M,Wraps,SBD,USA,310,332.5,345,352.5,345,,,,215,297.5,,,297.5,857.5
4,,109.8,110,Open,David Carter,M,Wraps,SBD,GBR,,,,,322.5,,,,175,332.5,-352.5,-365,332.5,830
5,,104.6,110,Open,Hauro Adachi,M,Wraps,SBD,JPN,,,,,285,,,,160,,,,260,705
6,,109.1,110,Open,Michel Gosselen,M,Wraps,SBD,CAN,,,,,242.5,,,,200,,,,255,697.5
1,,160.1,110+,Open,Don Reinhoudt,M,Wraps,SBD,USA,365,390,-415,,390,-245,245,255,255,342.5,375,-410,375,1020
2,,127.4,110+,Open,Taito Haara,M,Wraps,SBD,FIN,,,360,,360,,,215,215,325,350,-360,350,925
3,,132.1,110+,Open,John Phillip,M,Wraps,SBD,TGA,310,332.5,-352.5,,332.5,230,-245,-245,230,305,-325,-327.5,305,867.5
4,,134.7,110+,Open,Sven Huberth,M,Wraps,SBD,SWE,,,,,280,,,,205,,,,307.5,792.5
