Name,Age,Sex,Division,BodyweightKg,WeightClassKg,Squat1Kg,Squat2Kg,Squat3Kg,Squat4Kg,Best3SquatKg,Bench1Kg,Bench2Kg,Bench3Kg,Bench4Kg,Best3BenchKg,Deadlift1Kg,Deadlift2Kg,Deadlift3Kg,Deadlift4Kg,Best3DeadliftKg,TotalKg,Place,Country,Equipment,Event
Dominika Heráková,17,F,F-T2,46.9,48,65,75,-77.5,,75,37.5,40,41,,41,65,-75,76,,76,192,1,CZECH,Wraps,SBD
Crystal Grimsen,27,F,FO,47.4,48,80,-87.5,87.5,,87.5,52.5,57.5,-60,,57.5,110,117.5,122.5,,122.5,267.5,1,CANADA,Wraps,SBD
Sabine Guillaume,51,F,F-3,47.5,48,90,102.5,107.5,,107.5,52.5,57.5,-60,,57.5,120,135,,,135,300,1,FRANCE,Wraps,SBD
Autumn Ware,17,F,F-T2,51.2,52,-72.5,72.5,-80,,72.5,32.5,-40,-40,,32.5,77.5,-92.5,-92.5,,77.5,182.5,2,USA,Wraps,SBD
Hope Demaranville,17,F,F-T2,49.1,52,72.5,77.5,-82.5,,77.5,35,-42.5,-42.5,,35,82.5,90,95,,95,207.5,1,USA,Wraps,SBD
Melissa Byrd,40,F,F-1,52,52,62.5,72.5,-82.5,,72.5,25,27.5,32.5,,32.5,90,102.5,110,,110,215,2,USA,Wraps,SBD
Laura Manca,25,F,FO,51.9,52,115,122.5,-127.5,,122.5,50,55,-57.5,,55,115,122.5,130,,130,307.5,2,GB,Wraps,SBD
Taryn Madeley,24,F,FO,51.5,52,107.5,-117.5,117.5,,117.5,65,70,-72.5,,70,125,132.5,137.5,,137.5,325,1,AUSTRALIA,Wraps,SBD
Belinda Ryder,44,F,F-1,51.6,52,112.5,-122.5,-122.5,,112.5,57.5,-62.5,-62.5,,57.5,130,-137.5,137.5,,137.5,307.5,1,AUSTRALIA,Wraps,SBD
Lyndsay Cunningham,58,F,F-4,53.9,56,55,60,65,70,65,40,42.5,-45,,42.5,80,85,90,-100,90,197.5,1,NEW ZEALAND,Wraps,SBD
Silvia Daniela Silva,46,F,F-2,55.2,56,70,-80,80,,80,45,50,-55,,50,80,90,100,,100,230,1,ARGENTINA,Wraps,SBD
Anna Liubarska,15,F,F-T1,53.6,56,80,-90,-95,,80,50,55.5,-57.5,,55.5,80.5,-90,,,80.5,216,1,UKRAINE,Wraps,SBD
Samantha Snowder,27,F,FO,55.4,56,80,95,100,,100,35,47.5,-52.5,,47.5,102.5,115,-125,,115,262.5,4,USA,Wraps,SBD
Slávka Ratvajská,41,F,F-1,54.5,56,102.5,-110,110,,110,52.5,-57.5,57.5,,57.5,105,120,127.5,,127.5,295,2,SLOVAKIA,Wraps,SBD
Brandy Holloman,41,F,F-1,54.8,56,100,-120,-120,,100,65,77.5,-82.5,,77.5,115,125,140,,140,317.5,1,USA,Wraps,SBD
Laura Sgro,24,F,FO,54.1,56,143,152.5,160,167.5,160,90,95,-100,,95,122.5,135,-140,,135,390,2,AUSTRALIA,Wraps,SBD
Jennifer Smith,21,F,F-J,55.8,56,122.5,130,-137.5,,130,75,80,-85,,80,135,140,-145,,140,350,2,AUSTRALIA,Wraps,SBD
Ashleigh Marais,21,F,F-J,56,56,120,130,140,,140,75,80,90,,90,140,160,170.5,,170.5,400.5,1,SOUTH AFRICA,Wraps,SBD
Emma Lane,33,F,FO,55.4,56,135,-142.5,142.5,,142.5,55,60,62.5,,62.5,145,155,-160,,155,360,3,GB,Wraps,SBD
Emily Hu #1,33,F,FO,54.9,56,115,125,-130,,125,97.5,105,113,113.5,113,155,170,175,177.5,175,413,1,USA,Wraps,SBD
Sevasti Anastasiadis,16,F,FO,60,60,90,-100,-100,,90,45,50,-52.5,,50,110,120,125,,125,265,8,AUSTRALIA,Wraps,SBD
Gemma Parkin,30,F,FO,60,60,75,87.5,95,,95,42.5,47.5,-52.5,,47.5,115,120,-127.5,,120,262.5,9,GB,Wraps,SBD
Annjanette Wells,45,F,F-2,59.5,60,100,107.5,-115,,107.5,55,60,-65,,60,120,130,140,151,140,307.5,1,GB,Wraps,SBD
Alison Booker,28,F,FO,59.6,60,110,120,125,,125,-80,80,-85,,80,120,130,-135,,130,335,4,GB,Wraps,SBD
Debbie McAlpine,38,F,FO,60,60,-117.5,-127.5,127.5,,127.5,55,-60,-60,,55,120,130,-135,,130,312.5,5,SOUTH AFRICA,Wraps,SBD
Hannah Anderson,30,F,FO,58.8,60,85,90,-97.5,,90,45,50,55,,55,130,140,150,,150,295,7,GB,Wraps,SBD
Nea Raisanen,21,F,F-J,59.9,60,115,122.5,-130,,122.5,72.5,77.5,-82.5,,77.5,135,145,-152.5,,145,345,2,FINLAND,Wraps,SBD
Heather Bell,36,F,FO,59,60,92.5,100,-105,,100,55,57.5,60,,60,137.5,140,-152.5,,140,300,6,CANADA,Wraps,SBD
Sara Devlin,28,F,FO,58.5,60,-112.5,112.5,125,,125,55,-60,60,,60,137.5,147.5,155,,155,340,3,USA,Wraps,SBD
Mariel Bertona,41,F,F-1,58.8,60,120,142.5,147.5,,147.5,90,95,-97.5,,95,140,155,-165,,155,397.5,1,ARGENTINA,Wraps,SBD
Kayla Morelan,23,F,F-J,59.6,60,157.5,-175,-182.5,,157.5,80,87.5,90,,90,145,157.5,165,,165,412.5,1,USA,Wraps,SBD
Victoria Jewson,43,F,FO,59.8,60,120,130,-140,,130,65,70,72.5,,72.5,150,160,-170,,160,362.5,2,AUSTRALIA,Wraps,SBD
Emmy Louise,31,F,FO,58.9,60,135,150,155,,155,80,85,88,,88,160,170,175.5,,175.5,418.5,1,GB,Wraps,SBD
Deb Ellard,56,F,F-4,65.5,67.5,95,100,105,,105,57.5,60,-62.5,,60,110,115,120,125,120,285,1,CANADA,Wraps,SBD
Heather B Ashworth,17,F,F-T2,67,67.5,115,-125,-125,,115,75,80,82.5,,82.5,145,155,-165,-165,155,352.5,1,USA,Wraps,SBD
Chelsey Lampros,23,F,F-J,66.1,67.5,152.5,162.5,-170,,162.5,85,92.5,95,,95,150,160,167.5,172.5,167.5,425,1,USA,Wraps,SBD
Dominique Reed,25,F,FO,67.3,67.5,-117.5,120,125,,125,65,67.5,70,,70,-120,-120,-120,,,,DQ,GB,Wraps,SBD
Kimberlee Brewer,22,F,F-J,67.1,67.5,100,110,-120,,110,62.5,70,-72.5,,70,125,135,-142.5,,135,315,4,NEW ZEALAND,Wraps,SBD
Anna Matteson,29,F,FO,66.6,67.5,-122.5,122.5,-137.5,,122.5,62.5,65,-70,,65,125,137.5,145,,145,332.5,3,USA,Wraps,SBD
Zoe Bibbings,43,F,F-1,67.2,67.5,155,165,170,,170,65,70,-75,,70,145,-152.5,-152.5,,145,385,1,SOUTH AFRICA,Wraps,SBD
Brittany Dewald,23,F,F-J,65.4,67.5,130,142.5,-152.5,,142.5,55,60,62.5,,62.5,-140,147.5,155,,155,360,2,CANADA,Wraps,SBD
Dominique Thistleton,29,F,FO,67.4,67.5,-140,-140,140,,140,70,-75,-77.5,,70,145,155,-165,,155,365,2,GB,Wraps,SBD
Billa Hamilton,28,F,FO,67.5,67.5,165,175,182.5,,182.5,97.5,102.5,-107.5,,102.5,170,182.5,190,,190,475,1,AUSTRALIA,Wraps,SBD
Elisha Santucci,22,F,F-J,64.3,67.5,115,122.5,130,,130,67.5,75,-80,,75,140,142.5,,,142.5,347.5,3,USA,Wraps,SBD
Sonja Kruger,48,F,F-2,64.3,67.5,-90,97.5,-105,,97.5,62.5,-67.5,-67.5,,62.5,80,,,,80,240,1,SOUTH AFRICA,Wraps,SBD
DeLeigh Haley,44,F,F-1,67.5,67.5,65,,,,65,55,,,,55,100,,,,100,220,2,USA,Wraps,SBD
Kelly Berard,46,F,F-2,74,75,-92.5,-97.5,97.5,,97.5,72.5,76,77.5,,77.5,137.5,145,152.5,160,152.5,327.5,1,USA,Wraps,SBD
Krystal Gagen,24,F,FO,68,75,90,100,105,,105,45,50,52.5,,52.5,90,100,107.5,,107.5,265,6,AUSTRALIA,Wraps,SBD
Eleisha Rogers,25,F,FO,72.1,75,100,110,-117.5,,110,45,50,-55,,50,115,122.5,-130,,122.5,282.5,5,AUSTRALIA,Wraps,SBD
Caitlin Ross,22,F,F-J,72.5,75,115,122.5,-130,,122.5,55,60,-65,,60,117.5,127.5,-135,,127.5,310,1,AUSTRALIA,Wraps,SBD
Merryn Armstrong,27,F,FO,74.2,75,140,155,165,,165,67.5,72.5,75,,75,140,155,162.5,,162.5,402.5,1,AUSTRALIA,Wraps,SBD
Jodi Cupp,43,F,F-1,72.5,75,130,142.5,-152.5,,142.5,-70,70,82.5,,82.5,150,160,-167.5,,160,385,3,USA,Wraps,SBD
Jennifer Hamburger,43,F,F-1,73.9,75,155,165,-175,,165,95,102.5,-110,-110,102.5,160,170,180,,180,447.5,2,USA,Wraps,SBD
Cassandra Garcilaso,24,F,FO,73.3,75,130,140,-145,,140,77.5,-80,-80,,77.5,167.5,177.5,-182.5,,177.5,395,2,USA,Wraps,SBD
Leticia Bertotto,43,F,F-1,74,75,-155,155,165,,165,90,100,-102.5,,100,170,180,185,,185,450,1,ARGENTINA,Wraps,SBD
Jaime Krumins,30,F,FO,74.2,75,130,-135,-135,,130,60,67.5,,,67.5,182.5,190,-195,,190,387.5,3,CANADA,Wraps,SBD
Monica Johnston,65,F,F-6,71.4,75,30,,,,30,37.5,40,,,40,60,65,,,65,135,1,CANADA,Wraps,SBD
Aida Agüero,53,F,F-3,68,75,-185,185,-195,,185,125,-135,135,-140,135,180,-190,,,180,500,1,ARGENTINA,Wraps,SBD
Courtney Johnston,34,F,FO,72.8,75,117.5,126,,,126,65,-70.5,,,65,140,,,,140,331,4,CANADA,Wraps,SBD
Jana Vaskova,21,F,F-J,79.6,82.5,165,175,-183,,175,95,103,105,,105,185,197.5,207.5,210.5,207.5,487.5,1,SLOVAKIA,Wraps,SBD
Belinda Azzopardi,42,F,F-1,80.9,82.5,90,105,-120,,105,55,-62.5,-62.5,,55,125,130,135,,135,295,1,AUSTRALIA,Wraps,SBD
Kim Welcher,50,F,F-3,79.7,82.5,120,127.5,-137.5,,127.5,85,87.5,-92.5,,87.5,137.5,142.5,-147.5,,142.5,357.5,2,USA,Wraps,SBD
Meggan Hunott,26,F,FO,80.5,82.5,135,142.5,147.5,,147.5,70,80,-85,,80,145,160,167.5,,167.5,395,7,USA,Wraps,SBD
Loria Fry,51,F,F-3,76.4,82.5,117.5,-125,125,,125,92.5,102.5,-107.5,,102.5,145,170,-175,,170,397.5,1,USA,Wraps,SBD
Larnah Lowe,30,F,FO,81.2,82.5,165,-175,180,,180,70,77.5,-80,,77.5,160,170,177.5,,177.5,435,6,AUSTRALIA,Wraps,SBD
Nichola Diaz,32,F,FO,80.6,82.5,157.5,167.5,175,,175,87.5,95,100,,100,172.5,-180,180,,180,455,4,USA,Wraps,SBD
Court Paapu,32,F,FO,82.4,82.5,170,182.5,-190,,182.5,92.5,100,105,,105,160,172.5,192.5,,192.5,480,3,NEW ZEALAND,Wraps,SBD
Lezelle Jansen Van Vuren,33,F,FO,76.5,82.5,150,160,-170,,160,90,95,-100,,95,180,190,-200,,190,445,5,SOUTH AFRICA,Wraps,SBD
Tania George,45,F,FO,79.9,82.5,167.5,-182.5,-182.5,,167.5,105,112.5,115,,115,185,195,206,,206,488.5,2,GB,Wraps,SBD
Stella Krupinski,53,F,FO,78.8,82.5,205,-220,220,,220,95,102.5,107.5,,107.5,197.5,210,-220,,210,537.5,1,USA,Wraps,SBD
Anna Mccloskey,22,F,F-J,81.7,82.5,170,-182.5,-182.5,,170,90,95,-100,,95,200,210,-223,,210,475,2,USA,Wraps,SBD
Robin Micheli,19,F,F-T3,80.5,82.5,150,-160,182.5,,182.5,85,92.5,-95,,92.5,150,-160,,,150,425,1,USA,Wraps,SBD
Marie Metcalf,67,F,F-6,86.9,90,50,60,,,60,50,-52.5,-52.5,-52.5,50,92.5,100,105,-110,105,215,1,USA,Wraps,SBD
Shelly Yates,40,F,F-1,88.4,90,140,152.5,-167.5,,152.5,55,67.5,72.5,75,72.5,137.5,150,157.5,165,157.5,382.5,1,USA,Wraps,SBD
Hanne Bingle,56,F,F-4,85.5,90,100,107.5,120,,120,80,-90,90,,90,115,125.5,130,,130,340,1,GB,Wraps,SBD
Tania Traylor,45,F,F-2,88.6,90,115,144,-154,,144,72.5,87.5,-92.5,,87.5,142.5,161,-165,,161,392.5,1,USA,Wraps,SBD
Suzie Maude,39,F,FO,89,90,160,170,-180,,170,55,-62.5,62.5,,62.5,155,-165,-165,,155,387.5,5,AUSTRALIA,Wraps,SBD
Minna Pajulahti,34,F,FO,88.7,90,147.5,157.5,167.5,,167.5,115,118,120,-123,120,170,185,192.5,,192.5,480,2,FINLAND,Wraps,SBD
Nicole Fox,26,F,FO,89.1,90,137.5,145,150,,150,85,92.5,95,,95,182.5,192.5,-200,,192.5,437.5,4,USA,Wraps,SBD
Macy Armstrong,29,F,FO,88.3,90,192.5,-205,205,210,205,102.5,110,120,-125,120,185,192.5,-202.5,,192.5,517.5,1,USA,Wraps,SBD
Rebecca Buckley,29,F,FO,89.1,90,170,177.5,-182.5,,177.5,85,92.5,-95,,92.5,187.5,197.5,-205,,197.5,467.5,3,AUSTRALIA,Wraps,SBD
Tricia Bernstein,64,F,F-5,94.8,90+,-52.5,52.5,62.5,,62.5,37.5,42.5,45,,45,-85,85,107.5,,107.5,215,1,USA,Wraps,SBD
Kathy Wilbanks,52,F,F-3,133.6,90+,62.5,65,-80,,65,47.5,-52.5,52.5,,52.5,85,102.5,107.5,,107.5,225,1,USA,Wraps,SBD
Audrey Poffenroth,45,F,F-2,99.7,90+,92.5,102.5,107.5,,107.5,55,60,-65,,60,110,130,135,,135,302.5,2,CANADA,Wraps,SBD
Ruth Burke,49,F,F-2,98,90+,-110,-110,110,,110,50,57.5,-62.5,,57.5,120,130,-135,,130,297.5,3,IRELAND,Wraps,SBD
Jeanne Hardy,43,F,F-1,113.5,90+,-142.5,142.5,-160,,142.5,80,82.5,90,,90,122.5,127.5,137.5,,137.5,370,3,USA,Wraps,SBD
Amanda Metcalf,35,F,FO,116.2,90+,122.5,140,145,,145,77.5,85,-92.5,,85,-142.5,150,155,,155,385,3,USA,Wraps,SBD
Lizzy Nevins,20,F,F-J,95,90+,132.5,145,-155,-160,145,60,67.5,-72.5,,67.5,140,150,-157.5,,150,362.5,1,AUSTRALIA,Wraps,SBD
Colleen Fitzpatrick,44,F,F-1,132.9,90+,127.5,-130,130,,130,102.5,112.5,117.5,-120.5,117.5,150,160,-165,,160,407.5,2,CANADA,Wraps,SBD
Tamara Martin,45,F,F-2,129,90+,130,-145,152.5,,152.5,62.5,65,67.5,,67.5,152.5,160,172.5,,172.5,392.5,1,USA,Wraps,SBD
Kristin Wykoff,24,F,FO,137.5,90+,165,180,-195,,180,72.5,77.5,85,,85,167.5,180,-192.5,,180,445,2,USA,Wraps,SBD
Nicola Polley,40,F,F-1,104.1,90+,160,170,175,,175,67.5,72.5,-75,,72.5,185,192.5,200,,200,447.5,1,GB,Wraps,SBD
Mariela Ortellado,30,F,FO,93,90+,175,190,200,,200,80,95,-107.5,,95,180,200.5,210,,210,505,1,ARGENTINA,Wraps,SBD
Whit Baker,13,M,M-T1,55,56,82.5,92.5,-100,,92.5,47.5,57.5,-60,,57.5,127.5,140,-145,,140,290,1,USA,Wraps,SBD
Gus De Verteuil,24,M,MO,59.2,60,145,155,-170,,155,95,100,110,,110,185,195,-205,,195,460,1,GB,Wraps,SBD
Michael Holt,19,M,M-T3,66.3,67.5,192.5,215,227.5,,227.5,125,142.5,-147.5,,142.5,185,200,212.5,217.5,212.5,582.5,1,USA,Wraps,SBD
Stephen Le Sage,21,M,M-J,66.6,67.5,167.5,175,182.5,,182.5,130,137.5,-142.5,,137.5,207.5,215,227.5,,227.5,547.5,1,USA,Wraps,SBD
Jarrid Leigh Muller,20,M,M-J,66.9,67.5,172.5,192.5,200,,200,112.5,125,130,,130,210,-237.5,-240,,210,540,2,SOUTH AFRICA,Wraps,SBD
Callan Hayward,27,M,MO,67.5,67.5,215,225,232.5,,232.5,150,157.5,161,,161,225,235,-240,,235,628.5,1,AUSTRALIA,Wraps,SBD
Miroslav Andreáš,27,M,MO,65.5,67.5,150,165,-170,,165,90,100,-105,,100,160,180,182.5,,182.5,447.5,2,CZECH,Wraps,SBD
Abdelkader Hocini,26,M,MO,65.9,67.5,100,117.5,-132.5,,117.5,100,110,-120,,110,160,172.5,180,,180,407.5,3,FRANCE,Wraps,SBD
Cole Lavergne,32,M,MO,66.6,67.5,-170,-185,-185,,,120,130,-137.5,,130,215,225,227.5,,227.5,,DQ,USA,Wraps,SBD
Franklin Cupido,40,M,M-1,67.2,67.5,160,175,-185,-185,175,90,100,-105,,100,200,215,220,,220,495,1,SOUTH AFRICA,Wraps,SBD
Steffen Burkhard,65,M,M-6,66.8,67.5,135,145,150,,150,80,85,90,,90,135,145,155,,155,395,1,GERMANY,Wraps,SBD
Neel Devnarain,17,M,M-T2,72.4,75,135,-145,150,,150,90,100,105,,105,160,180,-190,,180,435,1,SOUTH AFRICA,Wraps,SBD
Axel Ravinet,18,M,M-T3,75,75,-185,-185,185,,185,122.5,130,-135,,130,185,200,-207.5,,200,515,1,FRANCE,Wraps,SBD
Cooper Dacus,18,M,M-T3,74.2,75,-185,-187.5,-220.5,,,110,-125,-125,,110,175,190,-202.5,,190,,DQ,USA,Wraps,SBD
Simon Williams,22,M,M-J,72.6,75,250,-260,-260,,250,155,162.5,-167.5,,162.5,240,255,-266,,255,667.5,1,GB,Wraps,SBD
Willie Fourie,20,M,M-J,74.9,75,240,-255,-255,-255,240,135,140,145,,145,250,265,270,-275,270,655,2,SOUTH AFRICA,Wraps,SBD
Jordan Lucas Brown,23,M,M-J,74.8,75,230,-245,-245,,230,150,160,-165,-165,160,240,255,-260,,255,645,3,AUSTRALIA,Wraps,SBD
Cameron Preymack,20,M,M-J,72.7,75,227.5,242.5,-253,-253,242.5,132.5,142.5,-165,,142.5,227.5,242.5,-262.5,,242.5,627.5,4,CANADA,Wraps,SBD
Blake Reiman,23,M,M-J,70.9,75,185,195,-205,,195,125,132.5,137.5,,137.5,215,230,-242.5,,230,562.5,5,USA,Wraps,SBD
Lukáš Vašíček,20,M,M-J,72.5,75,170,-185,-190,,170,120,130,-140,,130,180,200,-210,,200,500,6,CZECH,Wraps,SBD
Vladimir Zhadenov,28,M,MO,74.6,75,250,270,292.5,,292.5,175,185,-190,,185,230,250,-270,,250,727.5,1,RUSSIA,Wraps,SBD
Ronald Tarvin,26,M,MO,74.4,75,235,247.5,260,,260,152.5,165,-167.5,,165,240,260,275,,275,700,2,USA,Wraps,SBD
Kev Stuart,37,M,MO,75,75,210,220,230,,230,160,170,-180,,170,225,245,260,,260,660,3,GB,Wraps,SBD
Nick Hardy,28,M,MO,74.6,75,220,-240,-240,,220,135,150,-155,,150,250,272.5,-277.5,,272.5,642.5,4,USA,Wraps,SBD
Andrew Smith,25,M,MO,74.3,75,210,220,227.5,,227.5,132.5,-137.5,-137.5,,132.5,240,245,250,,250,610,5,GB,Wraps,SBD
Dhiren Dunraj,27,M,MO,72.1,75,200,215,-225,,215,140,-150,-150,,140,-220,230,-245,,230,585,6,NEW ZEALAND,Wraps,SBD
Les Grills,27,M,MO,74.8,75,235,255,-270,,255,170,177.5,-182.5,,177.5,67.5,,,,67.5,500,7,AUSTRALIA,Wraps,SBD
Adriano DaCosta,52,M,M-3,70.8,75,200,230,-260,,230,100,120,,,120,210,222.5,-230,,222.5,572.5,1,FRANCE,Wraps,SBD
Sejfo Šehović,56,M,M-4,72.2,75,160,170,-180,,170,100,-110,,,100,200,220,230,,230,500,1,BOSNIA,Wraps,SBD
Jean Palicot,62,M,M-5,74.2,75,125,-135,,,125,75,80,-85,,80,150,-162.5,,,150,355,1,FRANCE,Wraps,SBD
Bill Healy,65,M,M-6,73.7,75,-195,195,-213,,195,132.5,137.5,-141,,137.5,210,,,,210,542.5,1,IRELAND,Wraps,SBD
Guylhem Feraud,70,M,M-7,72.7,75,115,-125,-125,,115,105,112.5,-117.5,,112.5,160,167.5,175,-180,175,402.5,1,FRANCE,Wraps,SBD
Jimmy Ross,70,M,M-7,72.7,75,112.5,117.5,122.5,,122.5,-80,-80,80,,80,155,162.5,-170,,162.5,365,2,USA,Wraps,SBD
Seán Hehir,17,M,M-T2,81.3,82.5,-160,165,-170,,165,-130,132.5,-137.5,,132.5,180,-190,190,,190,487.5,1,IRELAND,Wraps,SBD
Fergus Crawley,19,M,M-T3,81.3,82.5,-200,200,215,,215,110,117.5,125,,125,200,220,227.5,,227.5,567.5,1,GB,Wraps,SBD
Aaron Mitchell,23,M,M-J,82.2,82.5,247.5,255,-260,,255,-137.5,-140,142.5,,142.5,262.5,275,290,,290,687.5,1,USA,Wraps,SBD
Francesco Catalano,23,M,M-J,82.2,82.5,220,-237.5,240,,240,160,175,-180,,175,250,270,-277.5,,270,685,2,CANADA,Wraps,SBD
Ezequiel Fernandez Uguet,22,M,M-J,79.2,82.5,-215,-215,215,,215,-115,120,130,,130,220,235,240,,240,585,3,ARGENTINA,Wraps,SBD
Dean Piggott,21,M,M-J,81.5,82.5,205,-215,,,205,130,137.5,-142.5,,137.5,225,-240,,,225,567.5,4,GB,Wraps,SBD
Eldene Smith,30,M,MO,82.5,82.5,240,255,270,,270,160,172.5,180,,180,270,290,307.5,,307.5,757.5,1,AUSTRALIA,Wraps,SBD
Larry Dyles,32,M,MO,81.6,82.5,245,-260,272.5,,272.5,160,170,182.5,,182.5,250,-272.5,-272.5,,250,705,2,USA,Wraps,SBD
Daniel Lane,36,M,MO,81.2,82.5,240,250,255,,255,150,157.5,162.5,,162.5,267.5,-280,-282.5,,267.5,685,3,GB,Wraps,SBD
Leighton Ashford,38,M,MO,81.9,82.5,255,267.5,277.5,,277.5,125,135,-142.5,,135,255,270,-275,,270,682.5,4,GB,Wraps,SBD
Nick Stefanou,24,M,MO,81.7,82.5,250,270,282.5,,282.5,120,,,,120,250,260,270,,270,672.5,5,SOUTH AFRICA,Wraps,SBD
Lee Powell,31,M,MO,81.6,82.5,-215,215,-235,,215,125,132.5,137.5,,137.5,250,275,-285,,275,627.5,6,CANADA,Wraps,SBD
Glen Smith,29,M,MO,81.4,82.5,-200,-200,200,,200,140,-147.5,-147.5,,140,180,,,,180,520,7,GB,Wraps,SBD
Frederic Parmentier,39,M,MO,80.2,82.5,200,220,-225,,220,120,-125,125,,125,-200,-200,-200,,,,DQ,GB,Wraps,SBD
Alan Glen,41,M,M-1,82.1,82.5,230,240,-250,,240,155,-165,-165,,155,240,250,-260,,250,645,1,USA,Wraps,SBD
Ian Humphreys,44,M,M-1,79.1,82.5,225,245,260,271,260,130,140,147.5,,147.5,220,235,-247.5,,235,642.5,2,GB,Wraps,SBD
Duane Bull,44,M,M-1,80.9,82.5,-225,-225,-225,,,125,135,140,,140,260,-272.5,,,260,,DQ,CANADA,Wraps,SBD
Robert Mantovani,46,M,M-2,80.4,82.5,200,212.5,217.5,,217.5,145,150,-155,,150,200,210,220,,220,587.5,1,USA,Wraps,SBD
Paul George,53,M,M-3,81.1,82.5,230,260,,,260,130,135,140,-141,140,230,276,,,276,676,1,GB,Wraps,SBD
Colin Mullaney,56,M,M-4,81.3,82.5,175,-182.5,182.5,,182.5,125,132.5,-138,,132.5,180,192.5,200,,200,515,1,CANADA,Wraps,SBD
John Dieter,59,M,M-4,77.2,82.5,150,165,,,165,110,117.5,120,,120,200,213,220,,220,505,2,FRANCE,Wraps,SBD
Mark Hobneck,56,M,M-4,81.2,82.5,145,167.5,182.5,,182.5,110,127.5,-137.5,,127.5,147.5,-170,,,147.5,457.5,3,USA,Wraps,SBD
Birchmans Pereira,68,M,M-6,81.1,82.5,150,172.5,181,,181,27.5,,,,27.5,-185,195,200,228,200,408.5,1,CANADA,Wraps,SBD
Draik Morgan,16,M,M-T2,82.6,90,165,175,-182.5,,175,85,92.5,-100,,92.5,175,185,205,,205,472.5,1,USA,Wraps,SBD
Nikita Jevdokimovs,17,M,M-T2,84.8,90,120,130,145,,145,85,95,100,,100,155,160,165,,165,410,2,LATVIA,Wraps,SBD
Nick Ramey,23,M,M-J,89.8,90,317.5,-332.5,-332.5,,317.5,-185,185,-190,,185,310,327.5,-340,,327.5,830,1,USA,Wraps,SBD
Dayle Longford,27,M,MO,89.9,90,-275,-275,275,-305.5,275,165,175,180,,180,300,310,318,,318,773,1,GB,Wraps,SBD
Joey Huneycutt,34,M,MO,88.7,90,237.5,260,280,,280,185,195,202.5,205,202.5,250,267.5,275,,275,757.5,2,USA,Wraps,SBD
Chris Ramos,29,M,MO,90,90,-305,305,-311,-311,305,162.5,172.5,-180,,172.5,267.5,277.5,-295,,277.5,755,3,USA,Wraps,SBD
George Kattan,24,M,MO,86.9,90,280,-282.5,,,280,170,180,-182.5,,180,280,290,-300,,290,750,4,SOUTH AFRICA,Wraps,SBD
Jason Sciacca,36,M,MO,89.1,90,250,265,275,,275,145,-152.5,-152.5,,145,250,262.5,275,,275,695,5,AUSTRALIA,Wraps,SBD
Christian Diaz,32,M,MO,90,90,247.5,260,-267.5,,260,152.5,-160,-160,,152.5,247.5,260,-267.5,,260,672.5,6,USA,Wraps,SBD
Andrew Merrit,28,M,MO,89,90,197.5,210,-225,,210,142.5,147.5,-150,,147.5,227.5,240,250,,250,607.5,7,USA,Wraps,SBD
Kevin Platt,27,M,MO,87.4,90,190,205,-220,,205,132.5,145,-152.5,,145,215,-232.5,-232.5,,215,565,8,USA,Wraps,SBD
Chris Jenkins,35,M,MO,89.7,90,277.5,292.5,-300,,292.5,165,-172.5,,,165,,,,,,,DQ,GB,Wraps,SBD
Imad Bahria,40,M,M-1,89.2,90,255,275,280,285,280,135,140,-145,,140,295,305,-310,,305,725,1,FRANCE,Wraps,SBD
Daniel Sánchez,41,M,M-1,89,90,-275,275,-300,,275,145,165,172.5,,172.5,225,-267.5,,,225,672.5,2,ARGENTINA,Wraps,SBD
Thierry le Roy,42,M,M-1,86.3,90,190,205,215,,215,140,150,-157.5,,150,230,240,-245,,240,605,3,FRANCE,Wraps,SBD
Ivan Giňovský,48,M,M-2,90,90,215,227.5,235.5,,235.5,120,130,135,,135,210,217.5,230,,230,600.5,1,SLOVAKIA,Wraps,SBD
James Berza,48,M,M-2,87.8,90,180,192.5,205,,205,142.5,152.5,-160,,152.5,210,227.5,240,,240,597.5,2,USA,Wraps,SBD
Gérard Ivars,49,M,M-2,88.2,90,210,220,-235,,220,110,115,-117.5,,115,210,-220,,,210,545,3,FRANCE,Wraps,SBD
Robert Harvey,49,M,M-2,90,90,-180,190,197.5,,197.5,135,142.5,145,,145,180,190,-197.5,,190,532.5,4,USA,Wraps,SBD
Peter Herák,54,M,M-3,86.2,90,190,210,225,-235.5,225,110,115,117.5,,117.5,210,225,230.5,,230.5,573,1,SLOVAKIA,Wraps,SBD
David Madeley,54,M,M-3,89.1,90,170,-185,185,,185,110,122.5,-127.5,,122.5,210,225,-232.5,,225,532.5,2,AUSTRALIA,Wraps,SBD
Michal Červinka,55,M,M-4,89.1,90,185,200,-215,,200,105,112.5,-120,,112.5,180,200,-210,,200,512.5,1,SLOVAKIA,Wraps,SBD
Vlastimil Šafařík,16,M,M-T2,92.9,100,190,205,215,,215,120,130,-135,,130,190,205,-220,,205,550,1,CZECH,Wraps,SBD
Nicholas Weir,21,M,M-J,99.5,100,237.5,257.5,265,,265,162.5,175,182.5,,182.5,260,,,,260,707.5,1,AUSTRALIA,Wraps,SBD
Bobby Purser,23,M,M-J,99.4,100,265,287.5,-295,,287.5,150,165,-177.5,,165,247.5,-262.5,-262.5,,247.5,700,2,USA,Wraps,SBD
Oleg Gevko,24,M,MO,99.5,100,305,320,,,320,190,200,205,,205,307.5,327.5,-335,,327.5,852.5,1,RUSSIA,Wraps,SBD
Curtis McDonald,27,M,MO,98.8,100,307.5,325,335,,335,190,200,-205,,200,295,-315,-320,,295,830,2,CANADA,Wraps,SBD
Mohammed Dangor,24,M,MO,99.6,100,280,300,315,,315,180,190,195,,195,300,320,-325,,320,830,3,SOUTH AFRICA,Wraps,SBD
Kevin Dickhut,33,M,MO,98.8,100,-285,-285,285,,285,185,-195,-195,,185,325,-332.5,-332.5,,325,795,4,USA,Wraps,SBD
Thomas Lilley,26,M,MO,99.4,100,-285,285,-302.5,,285,170,180,-187.5,,180,290,310,-325,,310,775,5,AUSTRALIA,Wraps,SBD
Jordan Grimes,27,M,MO,99.8,100,260,280,-300,,280,160,172.5,-180,,172.5,280,-305,305,,305,757.5,6,GB,Wraps,SBD
Dave Breker,34,M,MO,98.8,100,275,282.5,-300,,282.5,211,220,-227.5,,220,215,240,,,240,742.5,7,CANADA,Wraps,SBD
Rusty Bordelon,30,M,MO,98.6,100,215,230,237.5,,237.5,175,185,190,,190,265,280,295,,295,722.5,8,USA,Wraps,SBD
Mathew Le Roux,24,M,MO,98.4,100,250,-290,-300,,250,150,160,-165,,160,290,310,,,310,720,9,SOUTH AFRICA,Wraps,SBD
Scott Wasson,28,M,MO,95.3,100,250,272.5,282.5,,282.5,100,110,117.5,,117.5,300,-325,,,300,700,10,AUSTRALIA,Wraps,SBD
Kurt Patrick,28,M,MO,90.1,100,230,245,-255,,245,120,130,-137.5,,130,220,230,240,,240,615,11,AUSTRALIA,Wraps,SBD
Greg Kruger,38,M,MO,98.8,100,205,-235,-235,,205,-150,150,-155,,150,240,-255,-255,,240,595,12,SOUTH AFRICA,Wraps,SBD
Damian Rohrlach,32,M,MO,99.8,100,200,220,235,,235,120,130,137.5,,137.5,200,215,222.5,,222.5,595,13,AUSTRALIA,Wraps,SBD
Rodrigo Sanchez,44,M,M-1,91.7,100,200,220,230,,230,140,150,160,,160,240,250,255,,255,645,1,ARGENTINA,Wraps,SBD
Fabrice Benchabane,44,M,M-1,95.7,100,-200,210,217.5,,217.5,130,140,-145,,140,245,-257.5,-257.5,,245,602.5,2,FRANCE,Wraps,SBD
Louis Demetriades,42,M,M-1,97.1,100,187.5,200,207.5,,207.5,125,130,-135,,130,200,212.5,222.5,,222.5,560,3,USA,Wraps,SBD
Steve Hampton,46,M,M-2,99.8,100,-215,215,235,,235,145,155,160,,160,220,245,255,,255,650,1,NEW ZEALAND,Wraps,SBD
Leos Herak,46,M,M-2,97.1,100,180,-200,210,,210,135,145,-150,,145,190,210,220,,220,575,2,CZECH,Wraps,SBD
Bob Pfaller,51,M,M-3,98.9,100,182.5,192.5,202.5,,202.5,142.5,155,165,,165,185,197.5,205,,205,572.5,1,USA,Wraps,SBD
Lubos Halenkovsky,55,M,M-4,97.4,100,140,150,-160,,150,100,115,117.5,,117.5,170,190,205,,205,472.5,1,CZECH,Wraps,SBD
Petr Nosek,56,M,M-4,98.2,100,135,145,150,,150,115,120,125,,125,165,180,197.5,,197.5,472.5,2,CZECH,Wraps,SBD
Colin Foulser,60,M,M-5,92.4,100,165,205,,,205,110,117.5,122.5,,122.5,205,255,275,,275,602.5,1,GB,Wraps,SBD
Vladimir Svobodo,63,M,M-5,95.3,100,150,170,180,,180,115,125,130,,130,160,180,195,,195,505,2,CZECH,Wraps,SBD
Ben Hooten,61,M,M-5,95.1,100,137.5,145,-150,,145,87.5,-95,-95,,87.5,177.5,187.5,-197.5,,187.5,420,3,USA,Wraps,SBD
Herbert Czeplinksi,16,M,M-T2,107.6,110,230,-242.5,255,,255,160,172.5,185,,185,230,245,260,,260,700,1,GERMANY,Wraps,SBD
Jason Lay,18,M,M-T3,108.4,110,180,190,-200,,190,115,120,-125,,120,200,210,,,210,520,1,AUSTRALIA,Wraps,SBD
Geoffrey Stanford,23,M,M-J,109.5,110,-302.5,-302.5,302.5,,302.5,177.5,187.5,-195,,187.5,297.5,310,-320,,310,800,1,USA,Wraps,SBD
Paul Wright,22,M,M-J,109.9,110,277.5,290,-300,,290,155,170,-175,,170,260,272.5,280,,280,740,3,GB,Wraps,SBD
Cruz Fondriest,23,M,M-J,102.1,110,257.5,272.5,-282.5,,272.5,177.5,195,-200,,195,245,262.5,272.5,,272.5,740,2,USA,Wraps,SBD
Austin Pagani,20,M,M-J,106.6,110,225,250,260,,260,170,-182.5,,,170,290,305,-317.5,,305,735,4,USA,Wraps,SBD
Marc Barnes,20,M,M-J,107.1,110,280,295,-302.5,,295,-135,140,-145,,140,250,260,-272.5,,260,695,5,GB,Wraps,SBD
David Jenkinson,27,M,MO,109.1,110,325,350,-362.5,,350,227.5,240,-247.5,,240,330,350,-362.5,,350,940,1,GB,Wraps,SBD
Delroy McQueen,39,M,MO,109,110,340,360,-370,,360,170,180,182.5,,182.5,330,350,370.5,,370.5,913,2,GB,Wraps,SBD
Jesse Taylor,32,M,MO,106.6,110,282.5,297.5,-307.5,,297.5,237.5,245,-250,250,245,287.5,305,,,305,847.5,3,USA,Wraps,SBD
Fitim Xhemajlaj,26,M,MO,107.8,110,230,247.5,262.5,,262.5,170,182.5,187.5,,187.5,240,262.5,270,,270,720,4,AUSTRALIA,Wraps,SBD
David Cross,35,M,MO,108.4,110,210,230,245,,245,135,150,-155,,150,250,270,-280,,270,665,5,SOUTH AFRICA,Wraps,SBD
Drew Spriggs,26,M,MO,109.9,110,200,207.5,-215,,207.5,127.5,135,-140,,135,200,-220,220,,220,562.5,6,AUSTRALIA,Wraps,SBD
Joey Botter,39,M,MO,105.5,110,227.5,-250,,,227.5,165,-175,,,165,70,,,,70,462.5,7,USA,Wraps,SBD
Patrick Mendes,25,M,MO,109.9,110,-275,,,,,,,,,,,,,,,,DQ,USA,Wraps,SBD
Tom McEnirney,29,M,MO,108.4,110,285,305,,,305,185,200,-205,,200,-305,,,,,,DQ,NEW ZEALAND,Wraps,SBD
Joe Vayda,44,M,M-1,102.1,110,220,242.5,257.5,,257.5,142.5,167.5,-182.5,,167.5,220,230,245,,245,670,1,USA,Wraps,SBD
Gustavo Miño,44,M,M-1,101.1,110,200,220,-232.5,,220,140,-145,-145,,140,200,220,-230,,220,580,2,ARGENTINA,Wraps,SBD
Michal Šafařík,48,M,M-2,106.8,110,240,255,270,,270,145,155,162.5,,162.5,240,255,-270,,255,687.5,1,CZECH,Wraps,SBD
Matt Fix,47,M,M-2,108.7,110,-205,205,225,,225,157.5,170.5,-182.5,-182.5,170.5,215,240,-252.5,,240,635.5,2,USA,Wraps,SBD
Jan Kruger,51,M,M-3,109.3,110,-260,260,270,,270,175,185,-190,,185,275,295,302.5,,302.5,757.5,1,SOUTH AFRICA,Wraps,SBD
Kirt Brace,50,M,M-3,108.5,110,-260,260,-280,280,260,205,-215,,,205,260,280,-290,,280,745,2,USA,Wraps,SBD
Michael Martin,51,M,M-3,110,110,230,-257.5,-257.5,,230,130,142.5,-147.5,,142.5,225,245,-260,,245,617.5,3,CANADA,Wraps,SBD
Pavel Reichel,51,M,M-3,102.9,110,167.5,180,-190,,180,135,-142.5,-150,,135,210,220,230,,230,545,4,CZECH,Wraps,SBD
Richard Adams,57,M,M-4,108.1,110,205,222.5,230,,230,110,117.5,122.5,,122.5,215,230,240,,240,592.5,1,USA,Wraps,SBD
William VanSickle,55,M,M-4,105.8,110,170,182.5,192.5,,192.5,-122.5,122.5,,,122.5,205,215,227.5,,227.5,542.5,2,USA,Wraps,SBD
Jim Hall,72,M,M-7,108.1,110,142.5,147.5,152.5,,152.5,147.5,152.5,-160,,152.5,-157.5,165,177.5,,177.5,482.5,1,USA,Wraps,SBD
Keiran Chambers,17,M,M-T2,110.8,125,205,210,220,,220,110,117.5,-122.5,,117.5,210,-215,,,210,547.5,1,GB,Wraps,SBD
Matt Brooks,19,M,M-T3,123.1,125,210,227.5,232.5,,232.5,125,-137.5,-137.5,,125,205,217.5,230,,230,587.5,1,USA,Wraps,SBD
Jeff Cotter,23,M,M-J,116,125,-365,365,,,365,227.5,-240,-240,,227.5,295,-317.5,-317.5,,295,887.5,1,USA,Wraps,SBD
Jake Fisher,23,M,M-J,119.6,125,270,,,,270,160,-170,170,,170,270,285,300,,300,740,2,AUSTRALIA,Wraps,SBD
Joe Ladnier,51,M,MO,124.3,125,327.5,347.5,,,347.5,-230,235,-240,,235,295,312.5,-327.5,,312.5,895,1,USA,Wraps,SBD
Daniel Hurlin,28,M,MO,116.8,125,310,330,-340,,330,190,200,205,,205,280,300,-315,,300,835,2,SOUTH AFRICA,Wraps,SBD
Yevheniy Pavlov,29,M,MO,121.5,125,320,335,345,-366,345,190,195,-200,,195,260,275,-290,,275,815,3,UKRAINE,Wraps,SBD
David Rock,29,M,MO,122.8,125,272.5,285,292.5,,292.5,175,185,-187.5,,185,272.5,-285,-285,,272.5,750,4,USA,Wraps,SBD
Jeremiah Johnson,32,M,MO,118,125,250,-265,265,,265,-205,205,-225,,205,250,265,-272.5,,265,735,5,USA,Wraps,SBD
Joseph O'Flanagan,24,M,MO,115.8,125,235,245,-255,,245,145,152.5,160,,160,265,-275,-275,,265,670,6,GB,Wraps,SBD
Tim Rand,27,M,MO,121.8,125,210,230,-250,,230,150,-157.5,157.5,,157.5,220,240,252.5,,252.5,640,7,AUSTRALIA,Wraps,SBD
Gabriel Velasco,29,M,MO,120.8,125,-365,-365,-365,,,,,,,,,,,,,,DQ,USA,Wraps,SBD
Ricky Goodyear,40,M,M-1,120.5,125,315,325,335,,335,200,-215,-215,,200,305,325,337.5,,337.5,872.5,1,AUSTRALIA,Wraps,SBD
William Morgan,41,M,M-1,119,125,240,260,275,,275,195,-210,217.5,,217.5,230,245,260,,260,752.5,2,USA,Wraps,SBD
Jason Gillespie,42,M,M-1,123.9,125,250,270,280,,280,175,185,-195,,185,245,262.5,-272.5,,262.5,727.5,3,AUSTRALIA,Wraps,SBD
Marshall Green,42,M,M-1,121.7,125,227.5,237.5,250,,250,185,-192.5,-192.5,,185,227.5,-237.5,-237.5,,227.5,662.5,4,USA,Wraps,SBD
Mark Lawford,41,M,M-1,122.9,125,185,195,205,,205,175,182.5,-187.5,,182.5,215,225,235,,235,622.5,5,GB,Wraps,SBD
Jean Becourt,45,M,M-2,119.6,125,195,205,215,,215,162.5,170,175,,175,195,210,-215,,210,600,1,FRA,Wraps,SBD
Danny Saelam Barrett,14,M,M-T1,134,140,-210,220,232.5,,232.5,120,130,-135,,130,220,232.5,237.5,,237.5,600,1,AUSTRALIA,Wraps,SBD
Morocco Arnold,20,M,M-J,138.1,140,275,-290,295,,295,185,195,-205,,195,282.5,300,-310,,300,790,1,USA,Wraps,SBD
Matt Fryfogle,32,M,MO,132.5,140,332.5,-357.5,357.5,,357.5,222.5,237.5,245,,245,295,310,317.5,,317.5,920,1,USA,Wraps,SBD
Jordan Lupul,30,M,MO,130.8,140,-335,-342.5,342.5,,342.5,185,195,-200,,195,320,-330,,,320,857.5,2,CANADA,Wraps,SBD
Marek Pivovarnik,30,M,MO,126.1,140,230,245,-250,,245,165,175,-180,,175,260,270,-280,,270,690,3,SLOVAKIA,Wraps,SBD
Steven Psaltis,30,M,MO,131,140,210,-230,230,,230,110,120,-125,,120,270,-290,-290,,270,620,4,AUSTRALIA,Wraps,SBD
Tim Agnew,28,M,MO,138.5,140,185,-250,-250,,185,-122.5,142.5,150,,150,180,-205,-205,,180,515,5,CANADA,Wraps,SBD
Elias Abner,25,M,MO,139.7,140,290,307.5,-317.5,,307.5,162.5,-170,-170,,162.5,-297.5,-317.5,-317.5,,,,DQ,USA,Wraps,SBD
Miles Urias,27,M,MO,125.9,140,,,,,,,,,,,,,,,,,DQ,USA,Wraps,SBD
Zane Ison,47,M,M-2,135.3,140,330,-350,-350,,330,160,170,-193,,170,290,305,-310,,305,805,1,SOUTH AFRICA,Wraps,SBD
Cedric Woriax,50,M,M-3,129.3,140,-305,305,327.5,,327.5,210,220,-230,,220,260,272.5,280,,280,827.5,1,USA,Wraps,SBD
Stephen Allison,27,M,MO,143.4,140+,285,300,-307.5,,300,145,155,162.5,,162.5,250,-265,265,,265,727.5,2,AUSTRALIA,Wraps,SBD
Kyle Rice,31,M,MO,143.5,140+,305,-327.5,327.5,,327.5,145,157.5,162.5,,162.5,245,262.5,282.5,,282.5,772.5,1,USA,Wraps,SBD
Patrick Sobecke,35,M,MO,151,140+,-230,230,,,230,160,175,182.5,,182.5,230,-272.5,,,230,642.5,3,AUSTRALIA,Wraps,SBD
Sergey Yakovlev,42,M,M-1,162.5,140+,280,300,315,,315,190,202.5,210,,210,290,320,340,,340,865,1,KAZAKHSTAN,Wraps,SBD
