Name,Sex,Age,Division,Equipment,BodyweightKg,WeightClassKg,Squat1Kg,Squat2Kg,Squat3Kg,Best3SquatKg,Bench1Kg,Bench2Kg,Bench3Kg,Best3BenchKg,Deadlift1Kg,Deadlift2Kg,Deadlift3Kg,Best3DeadliftKg,TotalKg,Event,Place
Sue Chatton,F,49,F_M2_R_ABPU,Raw,47.1,48,55,60,-65,60,40,42.5,-45,42.5,80,90,95,95,197.5,SBD,1
Odette Smaldon,F,24,F_O_R_ABPU,Raw,47.5,48,75,80,-82.5,80,37.5,40,-42.5,40,110,122.5,130,130,250,SBD,1
Amelia Lang,F,29,F_O_R_ABPU,Raw,47.5,48,62.5,67.5,-75,67.5,40,-42.5,42.5,42.5,85,-95,95,95,205,SBD,2
Odette Smaldon,F,24,F_O_R_ABPU,Raw,47.5,48,,,,,,,,,110,122.5,130,130,130,D,1
Sarah Stainer,F,33,F_O_R_ABPU,Raw,45.3,48,,,,,,,,,90,95,-100,95,95,D,1
Amelia Lang,F,29,F_O_R_ABPU,Raw,47.5,48,,,,,,,,,85,-95,95,95,95,D,2
Tamara Cook,F,44,F_M1_C_ABPU,Wraps,50.9,52,70,80,82.5,82.5,45,50,52.5,52.5,70,82.5,87.5,87.5,222.5,SBD,1
Lexy Cattermole,F,38,F_O_C_ABPU,Wraps,50.8,52,77.5,85,-90,85,47.5,52.5,-57.5,52.5,117.5,-127.5,127.5,127.5,265,SBD,1
Hanna Clews,F,28,F_O_C_ABPU,Wraps,49,52,77.5,82.5,-87.5,82.5,47.5,52.5,-55,52.5,80,85,90,90,225,SBD,2
Jessica Lane,F,26,F_O_C_BPU,Wraps,51.7,52,80,-85,85,85,40,45,-47.5,45,107.5,112.5,-117.5,112.5,242.5,SBD,1
Bota Cork,F,37,F_O_R_ABPU,Raw,50.9,52,82.5,90,95,95,47.5,-52.5,-52.5,47.5,122.5,130,137.5,137.5,280,SBD,1
Georgina Hodson,F,31,F_O_R_ABPU,Raw,51.5,52,,,,,,,,,102.5,115,125,125,125,D,1
Aneela Rose,F,46,F_M2_C_ABPU,Wraps,52.9,56,75,80,85,85,45,-50,50,50,90,100,107.5,107.5,242.5,SBD,1
Katrina Allwood,F,47,F_M2_R_ABPU,Raw,54.1,56,75,80,85,85,42.5,47.5,-50,47.5,112.5,-122.5,122.5,122.5,255,SBD,1
Jane Davies,F,49,F_M2_S_ABPU,Raw,54.8,56,80,90,95,95,45,52.5,-65,52.5,100,120,-135,120,267.5,SBD,1
Lindsay Stevens,F,52,F_M3_C_BPU,Wraps,55.4,56,75,80,85,85,35,37.5,40,40,87.5,95,-100,95,220,SBD,1
Laura Manca,F,28,F_O_C_ABPU,Wraps,55.9,56,120,130,-140,130,50,55,57.5,57.5,120,130,-135,130,317.5,SBD,1
Alice Munks,F,30,F_O_C_ABPU,Wraps,55.5,56,105,115,120,120,47.5,50,52.5,52.5,125,135,140,140,312.5,SBD,2
Hollie Pearson,F,29,F_O_C_ABPU,Wraps,55.1,56,82.5,90,95,95,42.5,47.5,-52.5,47.5,110,120,127.5,127.5,270,SBD,3
Beckie Hebson,F,34,F_O_R_ABPU,Raw,55.2,56,105,115,120,120,57.5,62.5,-67.5,62.5,140,-152.5,-152.5,140,322.5,SBD,1
Cheryl Stanley,F,28,F_O_R_ABPU,Raw,55.1,56,107.5,115,-122.5,115,55,57.5,62.5,62.5,127.5,137.5,-147.5,137.5,315,SBD,2
Charlotte Taylor,F,28,F_O_R_ABPU,Raw,55.2,56,92.5,100,-102.5,100,52.5,57.5,-60,57.5,125,135,145,145,302.5,SBD,3
Nicola Swain,F,40,F_M1_C_ABPU,Wraps,57.8,60,95,105,110,110,57.5,62.5,-65,62.5,120,130,140,140,312.5,SBD,1
Shan Passmore,F,47,F_M2_C_ABPU,Wraps,56.5,60,120,130,-140,130,55,-60,-60,55,155,160,-165,160,345,SBD,1
Amanda Cunliffe,F,49,F_M2_C_ABPU,Wraps,58.7,60,95,100,-105,100,47.5,50,52.5,52.5,115,122.5,-127.5,122.5,275,SBD,2
Melanie Cuff,F,45,F_M2_R_ABPU,Raw,59.5,60,65,75,-82.5,75,35,40,-42.5,40,100,107.5,,107.5,222.5,SBD,1
Bernie Quinn,F,51,F_M3_R_ABPU,Raw,58.6,60,57.5,60,62.5,62.5,37.5,-42.5,-42.5,37.5,100,110,115,115,215,SBD,1
Alison Hough,F,52,F_M3_S_ABPU,Single-ply,59.1,60,125,140,150,150,85,95,100,100,130,145,-150,145,395,SBD,1
Hannah Anderson,F,33,F_O_C_ABPU,Wraps,59.3,60,125,-135,135,135,60,-65,70,70,140,150,160,160,365,SBD,1
Amy Lockley,F,26,F_O_C_ABPU,Wraps,59.3,60,120,127.5,132.5,132.5,60,67.5,-70,67.5,140,150,-160,150,350,SBD,2
Munira Patel,F,31,F_O_C_ABPU,Wraps,59.2,60,80,92.5,-95,92.5,42.5,47.5,50,50,115,120,125,125,267.5,SBD,3
Carly Lawes,F,32,F_O_R_ABPU,Raw,58.5,60,117.5,120,-125,120,65,67.5,-70,67.5,150,155,162.5,162.5,350,SBD,1
Kitsten Ligget,F,23,F_O_R_ABPU,Raw,59,60,105,115,120,120,60,65,-67.5,65,130,140,-150,140,325,SBD,2
Yvette Wilmot,F,35,F_O_R_ABPU,Raw,59.7,60,75,85,90,90,50,55,57.5,57.5,125,135,-140,135,282.5,SBD,3
Hannah Holmes,F,28,F_O_R_ABPU,Raw,60,60,85,92.5,95,95,47.5,52.5,55,55,117.5,122.5,-125,122.5,272.5,SBD,4
Shauna O'Brien,F,28,F_O_R_ABPU,Raw,58.1,60,-75,-75,75,75,42.5,47.5,50,50,95,105,112.5,112.5,237.5,SBD,5
Vikki Thomas,F,38,F_O_R_ABPU,Raw,59.2,60,75,-80,80,80,42.5,45,-47.5,45,102.5,107.5,110,110,235,SBD,6
Vicky Ellis,F,38,F_O_R_ABPU,Raw,58.4,60,,,,,,,,,132.5,140,145,145,145,D,1
Vicky Ellis,F,38,F_O_R_ABPU,Raw,58.4,60,,,,,55,60,62.5,62.5,,,,,62.5,B,1
Leanne Pearson,F,31,F_O_R_ABPU,Raw,56.4,60,,,,,40,47.5,-52.5,47.5,,,,,47.5,B,2
Naomi Sheppard,F,26,F_O_R_BPU,Raw,59.7,60,175,-185,185,185,92.5,100,-105,100,170,180,-185,180,465,SBD,1
Gurnaik Birring,M,27,M_O_C_ABPU,Wraps,59.9,60,135,145,155,155,117.5,125,-130,125,180,190,-202.5,190,470,SBD,1
Lee Dunn,M,33,M_O_R_ABPU,Raw,58.4,60,-120,120,140,140,100,105,110,110,165,-175,-175,165,415,SBD,1
Joanna Halliday,F,43,F_M1_C_ABPU,Wraps,65.1,67.5,120,130,140,140,80,85,-87.5,85,140,155,162.5,162.5,387.5,SBD,1
Anjanita Baker,F,43,F_M1_C_ABPU,Wraps,67.4,67.5,120,130,137.5,137.5,70,75,-77.5,75,150,160,-170,160,372.5,SBD,2
Lisa Hall,F,45,F_M2_R_ABPU,Raw,65.6,67.5,75,85,90,90,52.5,55,57.5,57.5,115,125,130,130,277.5,SBD,1
Diana Chimhundu,F,53,F_M3_R_ABPU,Raw,66.4,67.5,85,90,92.5,92.5,40,45,50,50,125,130,135,135,277.5,SBD,1
Bev Johnson,F,53,F_M3_R_ABPU,Raw,65.4,67.5,62.5,67.5,72.5,72.5,45,47.5,52.5,52.5,90,100,-110,100,225,SBD,2
Christine Scragg,F,52,F_M3_R_ABPU,Raw,65.9,67.5,,,,,,,,,90,100,107.5,107.5,107.5,D,1
Bev Johnson,F,53,F_M3_R_ABPU,Raw,65.4,67.5,,,,,,,,,90,100,-110,100,100,D,2
Bev Johnson,F,53,F_M3_R_ABPU,Raw,65.4,67.5,,,,,45,47.5,52.5,52.5,,,,,52.5,B,1
Linda Hicks,F,56,F_M4_S_ABPU,Single-ply,67.2,67.5,110,120,-130,120,85,90,-95,90,130,140,-150,140,350,SBD,1
Zsuzsanna Nagyne-Toth,F,30,F_O_C_ABPU,Wraps,66.1,67.5,150,160,167.5,167.5,65,70,72.5,72.5,155,-170,170,170,410,SBD,1
Amanda Gisby,F,36,F_O_C_ABPU,Wraps,64,67.5,140,150,160,160,60,65,-67.5,65,160,-170,170,170,395,SBD,2
Donna Phillips,F,29,F_O_C_ABPU,Wraps,66.3,67.5,120,127.5,130,130,65,70,75,75,140,147.5,155,155,360,SBD,3
Amanda Hillary,F,31,F_O_C_ABPU,Wraps,67,67.5,140,150,155,155,60,65,-67.5,65,125,132.5,140,140,360,SBD,4
Kate Skelley,F,29,F_O_C_ABPU,Wraps,64.3,67.5,95,102.5,107.5,107.5,52.5,57.5,60,60,130,140,150,150,317.5,SBD,5
Marie-Anne Thomas,F,32,F_O_C_ABPU,Wraps,66.5,67.5,100,110,-115,110,45,47.5,50,50,100,110,-120,110,270,SBD,6
Lucy Glover,F,27,F_O_R_ABPU,Raw,66.1,67.5,122.5,127.5,130,130,72.5,77.5,80,80,140,145,-152.5,145,355,SBD,1
Alexandra Blohm,F,28,F_O_R_ABPU,Raw,66.4,67.5,117.5,122.5,130,130,55,60,-65,60,150,160,165,165,355,SBD,2
Laura Smith,F,36,F_O_R_ABPU,Raw,67.2,67.5,112.5,120,127.5,127.5,62.5,67.5,-72.5,67.5,140,150,155,155,350,SBD,3
Lucinda Stansfield,F,29,F_O_R_ABPU,Raw,67.1,67.5,107.5,117.5,127.5,127.5,55,60,-62.5,60,120,140,-150,140,327.5,SBD,4
Samantha Vickers,F,,F_O_R_ABPU,Raw,67.3,67.5,105,-115,-115,105,60,67.5,-70,67.5,135,145,-155,145,317.5,SBD,5
Faith Steer,F,25,F_O_R_ABPU,Raw,64.2,67.5,97.5,102.5,110,110,45,-50,-50,45,130,140,150,150,305,SBD,6
Nasrin Sadeghi,F,31,F_O_R_ABPU,Raw,66.1,67.5,97.5,107.5,-115,107.5,55,57.5,-60,57.5,115,130,137.5,137.5,302.5,SBD,7
Chloe Price,F,24,F_O_R_ABPU,Raw,64.8,67.5,105,112.5,-120,112.5,50,55,-60,55,90,100,105,105,272.5,SBD,8
Chantelle Brady,F,36,F_O_R_ABPU,Raw,65.8,67.5,70,75,77.5,77.5,32.5,-37.5,,32.5,110,130,132.5,132.5,242.5,SBD,9
Gemma Lucas,F,35,F_O_R_ABPU,Raw,65.2,67.5,70,77.5,-82.5,77.5,42.5,45,47.5,47.5,95,105,-112.5,105,230,SBD,10
Gemma Lucas,F,35,F_O_R_ABPU,Raw,65.2,67.5,,,,,,,,,95,105,-112.5,105,105,D,1
Colin Ardron,M,73,M_M7_R_ABPU,Raw,65.8,67.5,75,80,85,85,55,60,-62.5,60,95,100,105,105,250,SBD,1
Matthew Ardron,M,32,M_O_C_ABPU,Wraps,66.8,67.5,180,200,-210,200,95,105,112.5,112.5,185,200,210,210,522.5,SBD,1
Daniel Clarkson,M,29,M_O_C_ABPU,Wraps,65.3,67.5,162.5,175,-185,175,110,117.5,-125,117.5,190,200,210,210,502.5,SBD,2
Alister Little,M,32,M_O_C_ABPU,Wraps,65.1,67.5,140,155,160,160,105,110,112.5,112.5,185,195,-200,195,467.5,SBD,3
Daniel Thrasivoulou,M,32,M_O_R_ABPU,Raw,65.8,67.5,165,172.5,177.5,177.5,115,122.5,127.5,127.5,215,225,-230,225,530,SBD,1
Paul Bartlett,M,38,M_O_R_ABPU,Raw,66.3,67.5,162.5,177.5,180,180,100,107.5,112.5,112.5,187.5,197.5,205,205,497.5,SBD,2
Daniel Thrasivoulou,M,32,M_O_R_ABPU,Raw,65.8,67.5,,,,,,,,,215,225,-230,225,225,D,1
Daniel Thrasivoulou,M,32,M_O_R_ABPU,Raw,65.8,67.5,,,,,115,122.5,127.5,127.5,,,,,127.5,B,1
Dominique Fisher,F,45,F_M2_C_BPU,Wraps,71.1,75,185,-205,205,205,82.5,-90,90,90,175,190,-200,190,485,SBD,1
Lisa Johnston,F,45,F_M2_R_ABPU,Raw,73.3,75,-90,90,100,100,52.5,57.5,-60,57.5,120,130,135,135,292.5,SBD,1
Lisa Johnston,F,45,F_M2_R_ABPU,Raw,73.3,75,,,,,,,,,120,130,135,135,135,D,1
Audra Corbett,F,50,F_M3_R_BPU,Raw,71.1,75,90,100,105,105,65,70,75,75,110,120,130,130,310,SBD,1
Patricia Wetton,F,55,F_M4_R_ABPU,Raw,73.7,75,90,95,100,100,60,62.5,-67.5,62.5,120,125,130,130,292.5,SBD,1
Gemma Wright,F,25,F_O_C_ABPU,Wraps,74.4,75,-152.5,-162.5,162.5,162.5,67.5,72.5,75,75,155,162.5,172.5,172.5,410,SBD,1
Fay Northcott,F,25,F_O_C_ABPU,Wraps,73.8,75,125,135,140,140,60,-65,65,65,155,-165,165,165,370,SBD,2
Scarlett Portues,F,26,F_O_C_ABPU,Wraps,74,75,145,152.5,-157.5,152.5,75,80,-85,80,125,135,-142.5,135,367.5,SBD,3
TJ Hill,F,33,F_O_C_ABPU,Wraps,74.9,75,125,130,-135,130,60,62.5,-65,62.5,130,140,145,145,337.5,SBD,4
Sainabou Joof,F,25,F_O_C_ABPU,Wraps,74.3,75,102.5,112.5,-117.5,112.5,42.5,47.5,-52.5,47.5,135,145,155,155,315,SBD,5
Dominique Fisher,F,45,F_O_C_BPU,Wraps,71.1,75,185,-205,205,205,82.5,-90,90,90,175,190,-200,190,485,SBD,1
Szilvia Kiraly,F,32,F_O_R_ABPU,Raw,72.4,75,-140,-140,140,140,82.5,87.5,92.5,92.5,165,170,177.5,177.5,410,SBD,1
Fran Loughlin,F,39,F_O_R_ABPU,Raw,73.1,75,110,117.5,-120,117.5,65,70,-75,70,130,140,145,145,332.5,SBD,2
Vanessa Develter,F,25,F_O_R_ABPU,Raw,74,75,87.5,95,102.5,102.5,50,55,-57.5,55,125,135,142.5,142.5,300,SBD,3
Caroline Blake,F,29,F_O_R_ABPU,Raw,75,75,80,85,95,95,50,57.5,-62.5,57.5,125,140,147.5,147.5,300,SBD,4
Lisa Johnston,F,45,F_O_R_ABPU,Raw,73.3,75,-90,90,100,100,52.5,57.5,-60,57.5,120,130,135,135,292.5,SBD,5
Kerri Morris,F,27,F_O_R_ABPU,Raw,69.5,75,90,100,105,105,45,-50,-50,45,110,122.5,130,130,280,SBD,6
Claire Comiskey,F,35,F_O_R_ABPU,Raw,69.3,75,80,85,92.5,92.5,45,47.5,-50,47.5,120,127.5,135,135,275,SBD,7
Brett Richmond,F,28,F_O_R_ABPU,Raw,73.92,75,-90,90,-105,90,60,-65,-65,60,115,125,-135,125,275,SBD,8
Sarah Lees,F,36,F_O_R_ABPU,Raw,73.3,75,77.5,-85,-90,77.5,45,47.5,50,50,125,137.5,-142.5,137.5,265,SBD,9
Gillian Millward,F,37,F_O_R_ABPU,Raw,73.8,75,75,-85,-90,75,45,47.5,-50,47.5,95,105,115,115,237.5,SBD,10
Lisa Johnston,F,45,F_O_R_ABPU,Raw,73.3,75,,,,,,,,,120,130,135,135,135,D,1
Jack Harvey,M,20,M_J_R_BPU,Raw,71.1,75,125,135,140,140,80,87.5,95,95,180,195,-200,195,430,SBD,1
Paul Barnes,M,49,M_M1_C_BPU,Wraps,74.9,75,140,-150,-150,140,100,-105,,100,190,200,-202.5,200,440,SBD,1
Danny Bassett,M,42,M_M1_R_BPU,Raw,74,75,145,-165,-165,145,-75,75,85,85,210,220,-232.5,220,450,SBD,1
Tony Chilcott,M,51,M_M3_S_BPU,Single-ply,73.2,75,250,260,-265,260,-150,150,155,155,230,240,-250,240,655,SBD,1
Slawomir Kaleta,M,63,M_M6_R_BPU,Raw,72.4,75,120,140,-160,140,90,-100,-100,90,-160,170,-192.5,170,400,SBD,1
Jay Bello,M,27,M_O_C_ABPU,Wraps,74.9,75,220,240,-250,240,150,155,160,160,260,280,-300,280,680,SBD,1
Aodhan Phillips-Lees,M,25,M_O_C_ABPU,Wraps,73.9,75,200,210,215,215,125,130,-135,130,190,205,,205,550,SBD,2
Alireza Herfedoust,M,30,M_O_C_BPU,Wraps,74.1,75,-265,-285,-300,,,,,,-240,,,,,SBD,DQ
Paul Beattie,M,30,M_O_R_ABPU,Raw,74.5,75,180,200,210,210,135,145,150,150,230,240,250,250,610,SBD,1
George Walton,M,24,M_O_R_ABPU,Raw,73.1,75,-170,175,185,185,125,130,135,135,215,230,240,240,560,SBD,2
Mitch Horrocks,M,24,M_O_R_ABPU,Raw,73.3,75,160,190,-200,190,110,125,130,130,230,-250,-250,230,550,SBD,3
Maxwell Colonna-Dashwood,M,32,M_O_R_ABPU,Raw,74.7,75,180,185,190,190,110,115,-120,115,215,225,,225,530,SBD,4
Sibghat Ullah,M,38,M_O_R_ABPU,Raw,72.9,75,140,150,-160,150,80,90,95,95,180,190,200,200,445,SBD,5
Al Kotwal,M,29,M_O_R_ABPU,Raw,74.2,75,125,132.5,140,140,95,100,105,105,175,190,-200,190,435,SBD,6
Ethan Flynn,M,24,M_O_R_ABPU,Raw,74.2,75,122.5,132.5,-140,132.5,77.5,85,-90,85,145,155,-165,155,372.5,SBD,7
David Hodson,M,33,M_O_R_ABPU,Raw,72.5,75,,,,,,,,,210,225,237.5,237.5,237.5,D,1
Mitch Horrocks,M,24,M_O_R_ABPU,Raw,73.3,75,,,,,,,,,230,-250,-250,230,230,D,2
Matt Morgan,M,32,M_O_R_ABPU,Raw,75,75,,,,,,,,,190,205,215,215,215,D,3
Vladimir Agasaryan,M,26,M_O_R_ABPU,Raw,73.9,75,,,,,145,147.5,150,150,,,,,150,B,1
Adeel Rana,M,37,M_O_S_ABPU,Single-ply,73.8,75,,,,,,,,,230,245,255,255,255,D,1
Cleary Clifford,F,42,F_M1_C_ABPU,Wraps,76.2,82.5,90,-100,-100,90,45,47.5,50,50,120,-127.5,-127.5,120,260,SBD,1
Lisa Gough,F,40,F_M1_C_BPU,Wraps,82.4,82.5,140,160,180,180,80,90,-100,90,180,195,210,210,480,SBD,1
Ann Votsikas,F,53,F_M3_R_ABPU,Raw,81.1,82.5,87.5,95,97.5,97.5,57.5,62.5,65,65,142.5,150,-155,150,312.5,SBD,1
Valerie Tinker,F,58,F_M4_C_ABPU,Wraps,77,82.5,65,-75,75,75,47.5,-50,-50,47.5,107.5,117.5,-130,117.5,240,SBD,1
Sandra Fitzpatrick,F,58,F_M4_R_BPU,Raw,81.3,82.5,-60,60,65,65,35,40,-45,40,90,100,105,105,210,SBD,1
Learna Lee,F,32,F_O_C_ABPU,Wraps,80.8,82.5,160,167.5,170,170,85,-90,-90,85,155,165,-170,165,420,SBD,1
Simone Kupisz,F,27,F_O_C_ABPU,Wraps,82,82.5,145,155,-165,155,90,-97.5,-97.5,90,140,150,155,155,400,SBD,2
Lana Evans,F,26,F_O_C_ABPU,Wraps,80.9,82.5,150,160,167.5,167.5,62.5,67.5,70,70,135,-142.5,142.5,142.5,380,SBD,3
Kellee Thomas-Plummer,F,32,F_O_C_ABPU,Wraps,76.5,82.5,110,115,-120,115,-55,-55,55,55,125,135,-142.5,135,305,SBD,5
Kerrie Price,F,24,F_O_C_ABPU,Wraps,80.1,82.5,105,115,-120,115,45,55,-57.5,55,130,150,-155,150,320,SBD,4
Sara Harpin,F,38,F_O_C_BPU,Wraps,80.6,82.5,175,190,200,200,110,115,120,120,190,205,215,215,535,SBD,1
Catherine Croydon,F,27,F_O_C_BPU,Wraps,77.8,82.5,140,-160,160,160,110,120,122.5,122.5,140,160,-180,160,442.5,SBD,2
Nicola Carthy,F,38,F_O_R_ABPU,Raw,78.8,82.5,92.5,105,110,110,65,70,-72.5,70,150,157.5,162.5,162.5,342.5,SBD,1
Jane Boyd,F,36,F_O_R_ABPU,Raw,81.8,82.5,95,105,110,110,72.5,-77.5,80,80,125,130,-135,130,320,SBD,2
Jane Boyd,F,36,F_O_R_ABPU,Raw,81.8,82.5,,,,,72.5,-77.5,80,80,,,,,80,B,1
Ashley Armstrong,M,22,M_J_C_BPU,Wraps,81.4,82.5,235,250,257.5,257.5,147.5,-157.5,160,160,270,282.5,-300,282.5,700,SBD,1
Samuel Rowland-Jones,M,20,M_J_C_BPU,Wraps,81.6,82.5,190,202.5,210,210,130,135,-140,135,260,270,-280,270,615,SBD,2
Luke Geary,M,23,M_J_C_BPU,Wraps,80.9,82.5,190,-205,205,205,130,142.5,-150,142.5,230,-240,,230,577.5,SBD,3
Greg Marcou,M,42,M_M1_C_BPU,Wraps,80.7,82.5,220,-230,-230,220,145,152.5,,152.5,250,255,260,260,632.5,SBD,1
W J Ashton,M,65,M_M6_R_ABPU,Raw,80.7,82.5,110,120,125,125,80,90,-92.5,90,170,-175,,170,385,SBD,1
Simon Vickers,M,35,M_O_C_ABPU,Wraps,81.5,82.5,220,240,245,245,132.5,142.5,150,150,270,285,-300,285,680,SBD,1
Ross Mchale,M,25,M_O_C_ABPU,Wraps,81.5,82.5,180,192.5,-200,192.5,140,-145,145,145,240,-252.5,-252.5,240,577.5,SBD,2
Chris Allison,M,33,M_O_C_ABPU,Wraps,82,82.5,180,190,200,200,115,120,125,125,190,200,210,210,535,SBD,3
Jamie Walmsley,M,30,M_O_C_ABPU,Wraps,79.9,82.5,160,-165,-165,160,110,115,-120,115,200,-212.5,212.5,212.5,487.5,SBD,4
Chris Allison,M,33,M_O_C_ABPU,Raw,82,82.5,,,,,,,,,190,200,210,210,210,D,1
Andrew Smith,M,27,M_O_C_BPU,Wraps,81.3,82.5,235,252.5,265,265,162.5,167.5,170,170,240,255,267.5,267.5,702.5,SBD,1
Mike Hoare,M,26,M_O_C_BPU,Wraps,75.9,82.5,235,250,-260,250,140,150,-155,150,265,285,-300,285,685,SBD,2
David Todd,M,35,M_O_C_BPU,Wraps,81.6,82.5,235,242.5,-250,242.5,155,160,-165,160,272.5,-285,-285,272.5,675,SBD,3
Darren Clayton,M,37,M_O_C_BPU,Wraps,80.5,82.5,180,-210,210,210,145,152.5,155,155,220,230,-240,230,595,SBD,4
Sohail Rashid,M,33,M_O_C_BPU,Wraps,80.9,82.5,185,-200,200,200,137.5,145,147.5,147.5,215,230,-240,230,577.5,SBD,5
Stuart Ogden,M,36,M_O_C_BPU,Wraps,80.8,82.5,200,210,220,220,-130,-130,,,-210,,,,,SBD,DQ
Stefan Putter,M,27,M_O_R_ABPU,Raw,81.5,82.5,190,215,-225,215,150,160,-165,160,260,280,285,285,660,SBD,1
Josh Ingram,M,25,M_O_R_ABPU,Raw,81.6,82.5,205,215,220,220,142.5,147.5,150,150,235,250,-255,250,620,SBD,2
Daniel Galata,M,25,M_O_R_ABPU,Raw,80.8,82.5,170,185,200,200,100,110,115,115,185,205,220,220,535,SBD,3
Tim Regan-Morris,M,30,M_O_R_ABPU,Raw,78.5,82.5,152.5,162.5,175,175,105,112.5,-120,112.5,200,220,227.5,227.5,515,SBD,4
Stuart Van Zeller,M,32,M_O_R_ABPU,Raw,81.9,82.5,157.5,-167.5,-167.5,157.5,112.5,120,122.5,122.5,185,200,-205,200,480,SBD,5
Jon-Paul Pearson,M,33,M_O_R_ABPU,Raw,78.2,82.5,145,155,160,160,77.5,82.5,-87.5,82.5,165,180,190,190,432.5,SBD,6
David Gould,M,32,M_O_R_ABPU,Raw,76.8,82.5,135,145,150,150,82.5,87.5,90,90,160,175,185,185,425,SBD,7
Josh Ingram,M,25,M_O_R_ABPU,Raw,81.6,82.5,,,,,142.5,147.5,150,150,,,,,150,B,1
Chris Jenkins,M,37,M_O_R_BPU,Raw,82.3,82.5,230,-252.5,,230,-120,120,140,140,260,282.5,310,310,680,SBD,1
Russell Taylor,M,35,M_O_R_BPU,Raw,82.2,82.5,202.5,217.5,,217.5,142.5,150,-157.5,150,240,265,-285,265,632.5,SBD,2
Jordan Newman,M,28,M_O_R_BPU,Raw,81.5,82.5,,,,,160,-172.5,-172.5,160,,,,,160,B,1
Danny Whittall,M,24,M_O_S_ABPU,Single-ply,81.6,82.5,200,225,-250,225,-140,-140,-140,,200,-215,,200,,SBD,DQ
Keenan Freer,M,19,M_T3_C_BPU,Wraps,81.4,82.5,185,-205,205,205,120,127.5,132.5,132.5,235,262.5,-272.5,262.5,600,SBD,1
Mohamed Elsherkisi,M,18,M_T3_R_BPU,Raw,82.4,82.5,165,180,195,195,130,135,,135,-200,210,225,225,555,SBD,1
Tracy Johnson,F,43,F_M1_C_ABPU,Wraps,83,90,80,95,120,120,55,60,-62.5,60,140,150,-155,150,330,SBD,1
Joanna Jack,F,40,F_M1_R_ABPU,Raw,88.3,90,125,132.5,137.5,137.5,65,70,-72.5,70,140,150,-157.5,150,357.5,SBD,1
Geni Devonish,F,43,F_M1_R_ABPU,Raw,88.1,90,115,120,125,125,70,-75,-75,70,135,140,142.5,142.5,337.5,SBD,2
Geni Devonish,F,43,F_M1_R_ABPU,Raw,88.1,90,,,,,,,,,135,140,142.5,142.5,142.5,D,1
Geni Devonish,F,43,F_M1_R_ABPU,Raw,88.1,90,,,,,70,-75,-75,70,,,,,70,B,1
Maureen Proctor,F,51,F_M3_C_ABPU,Wraps,88.8,90,105,115,-125,115,65,70,-72.5,70,130,135,-145,135,320,SBD,1
Melanie Cowen,F,51,F_M3_R_ABPU,Raw,88.9,90,90,100,-102.5,100,40,-45,-45,40,110,120,-122.5,120,260,SBD,1
Karla Frater,F,56,F_M4_R_ABPU,Raw,87.1,90,100,110,-115,110,45,47.5,-50,47.5,150,162.5,-170,162.5,320,SBD,1
Bernadette Cuninghame,F,39,F_O_C_ABPU,Wraps,86.9,90,155,165,172.5,172.5,102.5,107.5,110,110,170,177.5,187.5,187.5,470,SBD,1
Lisa Bulcock,F,29,F_O_C_ABPU,Wraps,88.6,90,185,195,200,200,80,85,-90,85,165,175,-190,175,460,SBD,2
Elizabeth Webb,F,29,F_O_R_ABPU,Raw,87.5,90,110,-112.5,-112.5,110,55,-60,-60,55,155,165,-172.5,165,330,SBD,1
Owain Tobias,M,23,M_J_C_BPU,Wraps,88.3,90,265,-285,-285,265,160,175,-185,175,300,325,-330,325,765,SBD,1
Maciej Rutkowski,M,22,M_J_R_BPU,Raw,88.1,90,190,,,190,150,-160,-160,150,280,300,-310,300,640,SBD,1
Daniel Mann,M,43,M_M1_C_BPU,Wraps,85.2,90,180,200,-210,200,110,130,,130,200,220,230,230,560,SBD,1
Darryl Triance,M,41,M_M1_R_BPU,Raw,88.5,90,185,200,210,210,135,-145,145,145,250,265,-272.5,265,620,SBD,1
John Cook,M,40,M_M1_R_BPU,Raw,88.3,90,155,165,-172.5,165,85,92.5,95,95,190,200,205,205,465,SBD,2
Pat Kelly,M,53,M_M2_C_BPU,Wraps,88.4,90,140,165,175,175,-140,-140,-140,,,,,,,SBD,DQ
Paul Murphy,M,49,M_M2_S_BPU,Single-ply,87.5,90,-290,290,310,310,-150,-150,150,150,275,295,-305,295,755,SBD,1
Phil Watkins,M,49,M_M2_S_BPU,Single-ply,89.4,90,,,,,,,,,280,302.5,,302.5,302.5,D,1
Jeremy Cope,M,50,M_M3_C_BPU,Wraps,86.8,90,220,-230,230,230,145,150,155,155,230,-250,,230,615,SBD,1
Kevin Smith,M,54,M_M3_C_BPU,Wraps,86.4,90,135,145,150,150,105,115,120,120,170,190,200,200,470,SBD,2
John Gilmer,M,53,M_M3_R_BPU,Raw,87.5,90,,,,,135,145,-155,145,,,,,145,B,1
David Gibson,M,51,M_M3_R_BPU,Raw,83,90,,,,,130,140,,140,,,,,140,B,1
David Gibson,M,51,M_M3_S_BPU,Single-ply,83,90,,,,,150,160,172.5,172.5,,,,,172.5,B,1
Tawanda Bwerudza,M,25,M_O_C_ABPU,Wraps,88.1,90,230,252.5,-260,252.5,130,145,-150,145,280,305,320,320,717.5,SBD,1
Luther Nzinga,M,26,M_O_C_ABPU,Wraps,88,90,210,225,-230,225,135,142.5,-145,142.5,-240,252.5,-257.5,252.5,620,SBD,2
Luke Corcoran,M,29,M_O_C_ABPU,Wraps,86.6,90,215,225,-230,225,107.5,112.5,,112.5,220,230,235,235,572.5,SBD,3
Chay Boare,M,32,M_O_C_ABPU,Wraps,85.6,90,190,200,210,210,112.5,120,125,125,190,200,210,210,545,SBD,4
Dayle Longford,M,29,M_O_C_BPU,Wraps,89.3,90,285,300,,300,192.5,200,205,205,310,330,-340,330,835,SBD,1
Chris Pugh,M,25,M_O_C_BPU,Wraps,88.1,90,300,315,-320,315,185,-192.5,192.5,192.5,275,285,-292.5,285,792.5,SBD,2
Wylie Sung,M,30,M_O_C_BPU,Wraps,88.1,90,280,-300,-300,280,165,175,180,180,300,320,-325,320,780,SBD,3
Andrew Beeston,M,31,M_O_C_BPU,Wraps,89.2,90,290,310,-320,310,180,192.5,-200,192.5,-245,245,260,260,762.5,SBD,4
Charlie Wilson,M,24,M_O_C_BPU,Wraps,88.1,90,220,235,250,250,130,140,150,150,270,300,305,305,705,SBD,5
Thaheer Mannan,M,30,M_O_C_BPU,Wraps,89.1,90,290,-300,-300,290,140,-145,,140,250,270,-290,270,700,SBD,6
Ben Farmer,M,31,M_O_C_BPU,Wraps,88.9,90,220,232.5,-240,232.5,130,140,142.5,142.5,210,225,-237.5,225,600,SBD,7
Robert Yenick,M,27,M_O_R_ABPU,Raw,89.3,90,200,220,230,230,155,-165,-165,155,260,275,-280,275,660,SBD,1
Liam Salmon,M,32,M_O_R_ABPU,Raw,89.5,90,220,230,232.5,232.5,150,160,-162.5,160,240,255,-270,255,647.5,SBD,2
Nathaniel Robinson,M,24,M_O_R_ABPU,Raw,88.5,90,192.5,-202.5,207.5,207.5,130,140,-145,140,230,250,-260,250,597.5,SBD,3
Adam Gasson,M,31,M_O_R_ABPU,Raw,88.4,90,185,200,210,210,125,135,-145,135,200,220,240,240,585,SBD,4
Russell Orme,M,29,M_O_R_ABPU,Raw,90,90,200,-210,-210,200,140,145,-150,145,210,220,-230,220,565,SBD,5
Benjamin Gadsdon,M,26,M_O_R_ABPU,Raw,87.4,90,170,187.5,195,195,125,132.5,-140,132.5,210,225,-232.5,225,552.5,SBD,6
Chris Etherington,M,35,M_O_R_ABPU,Raw,87.8,90,155,165,175,175,135,142.5,-147.5,142.5,200,212.5,-217.5,212.5,530,SBD,7
Michael Radford,M,24,M_O_R_ABPU,Raw,87.6,90,150,165,-175,165,105,112.5,120,120,200,220,235,235,520,SBD,8
Jordan Gretton-Doidge,M,28,M_O_R_ABPU,Raw,87.5,90,145,155,,155,130,-145,-145,130,210,220,230,230,515,SBD,9
Liam Salmon,M,32,M_O_R_ABPU,Raw,89.5,90,,,,,,,,,240,255,-270,255,255,D,1
Joseph Brown,M,28,M_O_R_ABPU,Raw,84.5,90,,,,,160,-170,170,170,,,,,170,B,1
Martin Cockcroft,M,35,M_O_R_ABPU,Raw,89.4,90,,,,,145,155,-162.5,155,,,,,155,B,2
Chris Etherington,M,35,M_O_R_ABPU,Raw,87.8,90,,,,,135,142.5,-147.5,142.5,,,,,142.5,B,3
Ross Watson,M,31,M_O_R_ABPU,Raw,88.9,90,160,-170,-175,160,100,107.5,110,110,-200,,,,,SBD,DQ
Mitch Ravenscroft,M,24,M_O_R_BPU,Raw,89.1,90,210,225,-250,225,190,200,-205,200,220,240,262.5,262.5,687.5,SBD,1
Thomas Sheppard,M,25,M_O_R_BPU,Raw,89.4,90,210,220,-230,220,150,162.5,-165,162.5,260,272.5,,272.5,655,SBD,2
Luke Nash,M,31,M_O_R_BPU,Raw,87.6,90,195,210,217.5,217.5,147.5,155,160,160,235,250,260,260,637.5,SBD,3
Lucian Luca,M,31,M_O_R_BPU,Raw,88.3,90,210,220,-225,220,160,165,-170,165,250,-260,-260,250,635,SBD,4
Thomas Sheppard,M,25,M_O_R_BPU,Raw,89.4,90,,,,,,,,,260,272.5,,272.5,272.5,D,1
Mitch Ravenscroft,M,24,M_O_R_BPU,Raw,89.1,90,,,,,190,200,-205,200,,,,,200,B,1
Thomas Sheppard,M,25,M_O_R_BPU,Raw,89.4,90,,,,,150,162.5,-165,162.5,,,,,162.5,B,2
Gareth James,M,30,M_O_R_BPU,Raw,89.4,90,-190,-190,-190,,,,,,,,,,,SBD,DQ
Aron Blight,M,19,M_T3_C_BPU,Wraps,87.1,90,195,200,210,210,165,-175,-182.5,165,220,235,-242.5,235,610,SBD,1
David Wilson,M,19,M_T3_R_BPU,Raw,89,90,,,,,180,187.5,-192.5,187.5,,,,,187.5,B,1
Luke Harrison,M,23,M_J_C_BPU,Wraps,99,100,280,-300,300,300,200,-210,-210,200,300,320,327.5,327.5,827.5,SBD,1
Leon Holmes,M,23,M_J_C_BPU,Wraps,96.4,100,250,-270,-270,250,150,162.5,-170,162.5,275,305,-310,305,717.5,SBD,2
Pentti Liukkonen,M,23,M_J_M_BPU,Multi-ply,96.7,100,,,,,,,,,250,270,-282.5,270,270,D,1
Andrew Murphy #1,M,23,M_J_S_BPU,Single-ply,97.6,100,-310,310,325,325,200,-210,-210,200,245,265,275,275,800,SBD,1
Rob Preston,M,49,M_M2_S_BPU,Single-ply,96.7,100,,,,,-250,250,-260,250,,,,,250,B,1
Terry Short,M,51,M_M3_R_BPU,Raw,95.6,100,215,-227.5,227.5,227.5,110,115,120,120,255,270,275,275,622.5,SBD,1
John Millar,M,52,M_M3_R_BPU,Raw,99,100,,,,,,,,,-155,,,,,D,DQ
Don Coates,M,57,M_M4_C_BPU,Wraps,97.8,100,220,230,240,240,160,172.5,180,180,250,270,280,280,700,SBD,1
Rik Davison,M,57,M_M4_R_BPU,Raw,94.8,100,,,,,,,,,255,-270,-270,255,255,D,1
Rik Davison,M,57,M_M4_R_BPU,Raw,94.8,100,,,,,155,165,-175,165,,,,,165,B,1
Ray Hunter,M,70,M_M7_R_ABPU,Raw,96.9,100,70,-80,92.5,92.5,-55,57.5,-60,57.5,135,150,-157.5,150,300,SBD,1
Marlon Wragg,M,25,M_O_C_ABPU,Wraps,98.4,100,280,-300,300,300,155,162.5,167.5,167.5,275,290,-300,290,757.5,SBD,1
Oliver Dilley,M,27,M_O_C_ABPU,Wraps,99.2,100,245,260,270,270,150,165,172.5,172.5,260,275,285,285,727.5,SBD,2
Tom Collins,M,,M_O_C_ABPU,Wraps,99.7,100,235,250,260,260,130,140,-145,140,225,-235,-235,225,625,SBD,3
Jason Berrington,M,,M_O_C_ABPU,Wraps,96.2,100,195,205,212.5,212.5,142.5,150,-155,150,235,260,-267.5,260,622.5,SBD,4
James Edwards,M,33,M_O_C_ABPU,Wraps,98.7,100,230,245,-255,245,122.5,130,-135,130,215,235,-250,235,610,SBD,5
Darren Collett,M,35,M_O_C_ABPU,Wraps,94.1,100,175,190,-200,190,120,125,-132.5,125,220,-230,230,230,545,SBD,6
Ty Tankard,M,25,M_O_C_ABPU,Wraps,98.4,100,175,200,215,215,105,110,-115,110,175,200,212.5,212.5,537.5,SBD,7
Shane Jerman,M,28,M_O_C_BPU,Wraps,99.1,100,300,325,340,340,190,205,210,210,310,-330,-330,310,860,SBD,1
Edgaras Kreipavicius,M,30,M_O_C_BPU,Wraps,98.3,100,280,-300,300,300,165,172.5,180,180,285,305,-320,305,785,SBD,2
Andrew Riddiford,M,29,M_O_C_BPU,Wraps,97.8,100,-260,-260,260,260,170,180,,180,300,310,-315,310,750,SBD,3
Luke Litchfield,M,32,M_O_C_BPU,Wraps,99.4,100,250,275,-300,275,170,180,-185,180,250,280,-300,280,735,SBD,4
Zak Walden,M,26,M_O_C_BPU,Wraps,97.9,100,237.5,247.5,-255,247.5,175,185,190,190,260,275,-290,275,712.5,SBD,5
Chris Lane,M,,M_O_C_BPU,Wraps,98.3,100,-227.5,230,240,240,165,172.5,177.5,177.5,265,275,285,285,702.5,SBD,6
Nathan Smoothy,M,24,M_O_C_BPU,Wraps,94,100,245,265,-272.5,265,147.5,155,160,160,245,255,260,260,685,SBD,7
Callum Rollo,M,35,M_O_C_BPU,Wraps,100,100,220,230,245,245,150,157.5,162.5,162.5,250,265,-275,265,672.5,SBD,8
Conor Nelly,M,26,M_O_C_BPU,Wraps,97.8,100,220,230,240,240,130,140,150,150,265,-285,-290,265,655,SBD,9
Harrison Fleetwood,M,28,M_O_C_BPU,Wraps,97.2,100,220,230,240,240,125,-135,-135,125,235,245,,245,610,SBD,10
Robert Ralph,M,,M_O_C_BPU,Wraps,99.3,100,240,-245,-250,240,135,-145,-145,135,220,230,,230,605,SBD,11
Kristaps Tomciks,M,25,M_O_C_BPU,Wraps,99.5,100,315,325,335,335,-210,-210,-210,,,,,,,SBD,DQ
Gareth Davies,M,36,M_O_M_ABPU,Multi-ply,97.8,100,,,,,202.5,-220,240,240,,,,,240,B,1
Kalle Räsänen,M,27,M_O_M_BPU,Multi-ply,97.1,100,,,,,,,,,330,355,-370,355,355,SBD,1
Dan Brunt-Murphy,M,24,M_O_M_BPU,Multi-ply,96.1,100,285,-302.5,-302.5,285,-220,-220,-220,,,,,,,SBD,DQ
Kyle Haynes,M,26,M_O_R_ABPU,Raw,96.4,100,190,200,210,210,145,155,162.5,162.5,220,235,-250,235,607.5,SBD,1
Daniel Hayes,M,26,M_O_R_ABPU,Raw,99.5,100,190,205,-212.5,205,140,150,-155,150,240,-265,-265,240,595,SBD,2
Matt Robinson,M,30,M_O_R_ABPU,Raw,94.3,100,190,200,205,205,120,125,130,130,230,245,255,255,590,SBD,3
Nigel Beattie,M,35,M_O_R_ABPU,Raw,97.1,100,180,190,195,195,130,-137.5,-137.5,130,210,230,-242.5,230,555,SBD,4
Paul Craven,M,33,M_O_R_ABPU,Raw,98,100,,,,,,,,,210,-220,220,220,220,D,1
Hefin Evans,M,,M_O_R_ABPU,Raw,98,100,,,,,160,-170,-170,160,,,,,160,B,1
Andrew Shaw,M,29,M_O_R_ABPU,Raw,99.5,100,,,,,130,135,-145,135,,,,,135,B,2
Paul Craven,M,33,M_O_R_ABPU,Raw,98,100,,,,,120,130,-132.5,130,,,,,130,B,3
Raimonds Mamonovs,M,32,M_O_R_BPU,Raw,99.9,100,237.5,252.5,260,260,-172.5,185,192.5,192.5,285,297.5,-307.5,297.5,750,SBD,1
Tommy Ray,M,28,M_O_R_BPU,Raw,95.3,100,210,222.5,-227.5,222.5,120,127.5,132.5,132.5,260,272.5,-277.5,272.5,627.5,SBD,2
Eimantas Sarpalis,M,25,M_O_R_BPU,Raw,95,100,180,-200,200,200,130,150,157.5,157.5,-200,220,232.5,232.5,590,SBD,3
Aamar Mahmood,M,30,M_O_R_BPU,Raw,96.3,100,,,,,225,230,232.5,232.5,,,,,232.5,B,1
Reece Meakin,M,27,M_O_R_BPU,Raw,99.2,100,,,,,205,-220,-227.5,205,,,,,205,B,2
Robert Sawośko,M,,M_O_S_BPU,Single-ply,99.1,100,,,,,-200,200,-210,200,,,,,200,B,1
Nicholas Grasmeder,M,18,M_T3_C_BPU,Wraps,95.6,100,195,205,212.5,212.5,120,125,127.5,127.5,195,210,225,225,565,SBD,1
Marcus Kay,M,21,M_J_C_BPU,Wraps,103.9,110,-280,280,-300,280,170,-180,180,180,280,-300,305,305,765,SBD,1
William McNeil,M,40,M_M1_C_BPU,Wraps,106.1,110,-180,-180,180,180,-160,160,180,180,220,240,-255,240,600,SBD,1
Neil Stewart,M,41,M_M1_M_BPU,Multi-ply,106.3,110,,,,,200,-207.5,-207.5,200,,,,,200,B,1
Stephen Knight,M,44,M_M1_R_BPU,Raw,103.1,110,220,235,245,245,170,180,185,185,230,250,270,270,700,SBD,1
Darren Hammond,M,46,M_M2_R_BPU,Raw,106.7,110,220,-235,-235,220,135,145,-155,145,280,-300,,280,645,SBD,1
David Pennington,M,51,M_M3_R_BPU,Raw,106.3,110,,,,,,,,,220,235,240,240,240,D,1
David Pennington,M,51,M_M3_R_BPU,Raw,106.3,110,,,,,180,187.5,-192.5,187.5,,,,,187.5,B,1
Kevin Maher,M,56,M_M4_M_BPU,Multi-ply,108.9,110,,,,,205,217.5,227.5,227.5,,,,,227.5,B,1
Rob Todd,M,72,M_M7_C_BPU,Wraps,105.9,110,150,160,170,170,90,100,110,110,180,190,200,200,480,SBD,1
Jay Hollingsworth,M,33,M_O_C_ABPU,Wraps,104.6,110,270,-290,290,290,180,-190,-190,180,350,-370,-370,350,820,SBD,1
William Newton,M,32,M_O_C_ABPU,Wraps,108.3,110,275,285,-300,285,160,170,175,175,300,317.5,327.5,327.5,787.5,SBD,2
Andrzej Roszkowski,M,37,M_O_C_BPU,Wraps,108.2,110,305,-325,,305,202.5,-222.5,,202.5,240,270,310,310,817.5,SBD,1
Rhys Browning,M,28,M_O_C_BPU,Wraps,108.1,110,250,280,-300,280,170,180,-190,180,315,335,-350,335,795,SBD,2
David Aldworth,M,35,M_O_C_BPU,Wraps,109.2,110,270,280,-285,280,190,-195,,190,315,-330,,315,785,SBD,3
Martin Taft,M,30,M_O_C_BPU,Wraps,105.2,110,220,235,247.5,247.5,160,177.5,,177.5,270,285,-287.5,285,710,SBD,4
Cyle Johnson,M,,M_O_C_BPU,Wraps,106.4,110,220,235,-245,235,165,175,182.5,182.5,230,245,255,255,672.5,SBD,5
Grant Roberts,M,27,M_O_C_BPU,Wraps,103.1,110,205,220,230,230,170,175,180,180,240,255,-262.5,255,665,SBD,6
David John Williamson,M,29,M_O_C_BPU,Wraps,106.9,110,220,230,-240,230,162.5,-170,-170,162.5,252.5,262.5,-270,262.5,655,SBD,7
Neil Stewart,M,,M_O_M_BPU,Multi-ply,108.3,110,,,,,-197.5,197.5,-202.5,197.5,,,,,197.5,B,1
Andrew Davey,M,34,M_O_R_ABPU,Raw,105.1,110,225,-237.5,237.5,237.5,180,192.5,200,200,255,-275,280,280,717.5,SBD,1
John Smith #4,M,31,M_O_R_ABPU,Raw,106,110,240,250,257.5,257.5,160,167.5,175,175,260,270,277.5,277.5,710,SBD,2
Mitchell Tutt,M,32,M_O_R_ABPU,Raw,108.2,110,230,252.5,257.5,257.5,140,-152.5,,140,260,282.5,-287.5,282.5,680,SBD,3
Nathan Wysocki,M,24,M_O_R_ABPU,Raw,108.1,110,220,240,-260,240,135,142.5,-147.5,142.5,250,265,-275,265,647.5,SBD,4
Jaimie Self,M,28,M_O_R_ABPU,Raw,107.9,110,190,-202.5,-202.5,190,125,132.5,140,140,240,245,250,250,580,SBD,5
Adam Stott,M,36,M_O_R_ABPU,Raw,106.1,110,165,175,-185,175,110,115,,115,200,205,210,210,500,SBD,6
Andrew Whitaker,M,35,M_O_R_ABPU,Raw,106.6,110,,,,,195,207.5,215,215,,,,,215,B,1
Jim Nuttall,M,34,M_O_R_BPU,Raw,107.5,110,235,265,-285,265,200,-210,-210,200,340,370,-390,370,835,SBD,1
Arran Sullivan,M,27,M_O_R_BPU,Raw,109.7,110,225,240,250,250,155,165,170,170,240,250,260,260,680,SBD,2
Adam Dunne,M,,M_O_R_BPU,Raw,110,110,190,202.5,210,210,147.5,155,162.5,162.5,230,245,260,260,632.5,SBD,3
Eliot Page,M,25,M_O_R_BPU,Raw,108.6,110,,,,,,,,,320,340,-350,340,340,D,1
Martin Brown,M,37,M_O_R_BPU,Raw,104.7,110,,,,,170,182.5,190,190,,,,,190,B,1
Adam Towse,M,34,M_O_R_BPU,Raw,104.9,110,,,,,150,160,-165,160,,,,,160,B,2
Greg Probert,M,38,M_O_S_BPU,Single-ply,109.1,110,280,300,320,320,200,210,220,220,270,-280,-280,270,810,SBD,1
Dominic Hill,M,21,M_J_C_BPU,Wraps,119.2,125,220,230,-235,230,130,140,150,150,270,300,,300,680,SBD,1
Nico Duffield,M,23,M_J_C_BPU,Wraps,116.7,125,-310,-310,-310,,-185,,,,,,,,,SBD,DQ
Jacob Holdcroft,M,20,M_J_R_BPU,Raw,116.1,125,250,-260,-265,250,160,-170,-170,160,280,-300,,280,690,SBD,1
Jan Puhlovsky,M,40,M_M1_C_BPU,Wraps,119.7,125,215,245,-260,245,170,192.5,-207.5,192.5,210,,,210,647.5,SBD,1
Paul Weller,M,53,M_M3_C_BPU,Wraps,121.5,125,185,200,220,220,145,152.5,157.5,157.5,245,260,-275,260,637.5,SBD,1
Tom Mcmutrie,M,50,M_M3_R_BPU,Raw,116.7,125,185,200,210,210,140,,,140,240,255,262.5,262.5,612.5,SBD,1
Chris Apark,M,51,M_M3_R_BPU,Raw,114.5,125,,,,,130,140,145,145,,,,,145,B,1
Paul Edmonds,M,57,M_M4_R_BPU,Raw,123.5,125,,,,,205,215,-220,215,,,,,215,B,1
Lucas Royce,M,28,M_O_C_ABPU,Wraps,116.1,125,250,265,275,275,175,180,185,185,290,310,320,320,780,SBD,1
Matthew Ward,M,26,M_O_C_ABPU,Wraps,116.5,125,227.5,242.5,250,250,130,142.5,145,145,220,235,250,250,645,SBD,2
Lee Mungovan,M,38,M_O_C_ABPU,Wraps,122.3,125,175,190,200,200,145,155,160,160,195,205,215,215,575,SBD,3
Daniel McCaffrey,M,,M_O_C_ABPU,Wraps,120.1,125,215,225,-242.5,225,90,-105,-105,90,-190,,,,,SBD,DQ
Sam Bollands,M,30,M_O_C_BPU,Wraps,120.9,125,320,340,355,355,205,215,220,220,330,360,-375,360,935,SBD,8
Grant Mcevansoneya,M,27,M_O_C_BPU,Wraps,124.4,125,320,342.5,350,350,230,240,245,245,290,305,-315,305,900,SBD,9
Louis Beaumont,M,26,M_O_C_BPU,Wraps,124.2,125,-300,300,325,325,180,190,200,200,300,320,-330,320,845,SBD,10
Brandon Scott #1,M,,M_O_C_BPU,Wraps,113.2,125,230,-247.5,247.5,247.5,195,205,-210,205,265,282.5,-300,282.5,735,SBD,11
Jack Clempson,M,25,M_O_C_BPU,Wraps,115.3,125,240,245,250,250,170,180,-182.5,180,300,-310,,300,730,SBD,12
Iain Connor,M,40,M_O_M_BPU,Multi-ply,124.5,125,,,,,-345,,,,,,,,,B,DQ
Brett Wilde,M,27,M_O_R_ABPU,Raw,121.2,125,240,255,260,260,130,142.5,-147.5,142.5,250,270,-282.5,270,672.5,SBD,1
Adam Jackson #2,M,27,M_O_R_BPU,Raw,118.2,125,230,245,260,260,175,185,195,195,270,290,305,305,760,SBD,1
Andrew Pearson,M,30,M_O_R_BPU,Raw,122.5,125,-235,235,250,250,170,180,187.5,187.5,255,275,280,280,717.5,SBD,2
Neil Hughes,M,29,M_O_R_BPU,Raw,117.6,125,,,,,,,,,310,320,-332.5,320,320,D,1
Duncan Sharp,M,34,M_O_S_ABPU,Single-ply,118.5,125,,,,,-310,-310,-310,,,,,,,B,DQ
Darren McCormac,M,41,M_M1_C_BPU,Wraps,131,140,260,-280,,260,190,202.5,-210,202.5,340,360,-380,360,822.5,SBD,1
Liam Hinchliffe,M,,M_O_C_ABPU,Wraps,130,140,-300,300,-315,300,195,-200,-200,195,260,285,300,300,795,SBD,1
Artur Chrzaszcz,M,35,M_O_C_BPU,Wraps,140,140,385,410,417.5,417.5,210,-222.5,-222.5,210,325,350,-357.5,350,977.5,SBD,1
Sean Curran,M,32,M_O_C_BPU,Wraps,127.5,140,200,,-215,200,145,155,-162.5,155,220,252.5,,252.5,607.5,SBD,2
Marian Lighean,M,37,M_O_C_BPU,Raw,133.8,140,,,,,,,,,270,300,-312.5,300,300,D,1
Marian Lighean,M,37,M_O_C_BPU,Raw,133.8,140,,,,,160,165,170,170,,,,,170,B,1
Frankie Kemp,M,25,M_O_R_ABPU,Raw,139.8,140,250,-272.5,-272.5,250,150,170,-182.5,170,250,-275,,250,670,SBD,1
Domenic Fazzani,M,28,M_O_R_ABPU,Raw,134.6,140,,,,,190,200,205,205,,,,,205,B,1
Alexander Clarke,M,28,M_O_R_BPU,Raw,127.5,140,270,295,307.5,307.5,200,212.5,222.5,222.5,320,350,370,370,900,SBD,1
Gavin Hughes,M,,M_O_R_BPU,Raw,140,140,,,,,250,-265,-265,250,,,,,250,B,1
Steve Macneil,M,33,M_O_S_BPU,Single-ply,134.4,140,330,355,370,370,337.5,-347.5,-347.5,337.5,280,302.5,-317.5,302.5,1010,SBD,1
James Godber,M,32,M_O_S_BPU,Single-ply,129.3,140,,,,,260,272.5,282.5,282.5,,,,,282.5,B,1
Douglas Lisle,M,,M_O_S_ABPU,Single-ply,81.3,82.5,,,,,170,-175,-185,170,,,,,170,B,1
David Morris,M,47,M_M1_R_BPU,Raw,161.7,140+,,,,,200,220,230,230,,,,,230,B,1
Mitchal Flowers,M,27,M_O_C_ABPU,Wraps,156.9,140+,300,320,330,330,185,195,-205,195,300,315,325,325,850,SBD,1
Liam Jones,M,,M_O_C_ABPU,Wraps,140.4,140+,192.5,-212.5,-212.5,192.5,140,152.5,155,155,262.5,-275,-275,262.5,610,SBD,2
Carl Jones,M,30,M_O_C_BPU,Wraps,152.1,140+,315,335,350,350,180,192.5,-200,192.5,327.5,-345,,327.5,870,SBD,1
Daniel Stain,M,26,M_O_R_ABPU,Raw,142.2,140+,220,235,240,240,130,140,142.5,142.5,255,275,280,280,662.5,SBD,1
Daniel Stain,M,26,M_O_R_ABPU,Raw,142.2,140+,,,,,,,,,255,275,280,280,280,D,1
Daniel Stain,M,26,M_O_R_ABPU,Raw,142.2,140+,,,,,130,140,142.5,142.5,,,,,142.5,B,1
Mitch Wright,M,27,M_O_R_BPU,Raw,151.3,140+,,,,,250,262.5,-272.5,262.5,,,,,262.5,B,1
Josh Brown,M,26,M_O_R_BPU,Raw,145.2,140+,,,,,212.5,220,-227.5,220,,,,,220,B,2
Carol Hughes,F,41,F_M1_C_ABPU,Wraps,121.1,90+,145,155,-165,155,65,72.5,77.5,77.5,-130,130,135,135,367.5,SBD,1
Kerry Fannon,F,41,F_M1_R_ABPU,Raw,111.3,90+,115,125,130,130,45,50,52.5,52.5,150,162.5,-170,162.5,345,SBD,1
Erin Cartwright,F,27,F_O_C_ABPU,Wraps,125.3,90+,180,190,200,200,80,90,100,100,180,190,200,200,500,SBD,1
Steevi Pugh,F,28,F_O_C_ABPU,Wraps,101.2,90+,170,182.5,187.5,187.5,70,75,77.5,77.5,147.5,157.5,-162.5,157.5,422.5,SBD,2
Kadie Crichton,F,25,F_O_C_ABPU,Wraps,114.6,90+,145,155,165,165,65,70,72.5,72.5,145,155,165,165,402.5,SBD,3
Sherie Reed,F,37,F_O_C_ABPU,Wraps,99.9,90+,110,115,130,130,60,62.5,65,65,120,130,140,140,335,SBD,4
Laura Parker,F,30,F_O_R_ABPU,Raw,108.1,90+,145,155,165,165,87.5,95,100,100,160,175,185,185,450,SBD,1
Vicki Highet,F,29,F_O_R_ABPU,Raw,135.6,90+,100,-110,110,110,-67.5,67.5,-80,67.5,110,125,135,135,312.5,SBD,2
Sophie Viner,F,24,F_O_R_ABPU,Raw,102.5,90+,-90,90,100,100,47.5,-52.5,-52.5,47.5,120,-130,130,130,277.5,SBD,3
Marcin Kaleta,M,40,M_M1_C_ABPU,Wraps,85.7,90,150,165,180,180,95,110,-120,110,160,180,200,200,490,SBD,1
Dan Routledge,M,22,M_J_R_ABPU,Raw,74.8,75,155,165,-170,165,85,90,-95,90,180,-190,-190,180,435,SBD,4
Calum Hunter,M,20,M_J_R_ABPU,Raw,72.8,75,140,150,-155,150,90,-100,-100,90,190,200,-207.5,200,440,SBD,3
Harry Sheader,M,21,M_J_R_ABPU,Raw,65.4,67.5,,,,,110,117.5,-127.5,117.5,190,200,215,215,332.5,BD,1
Bradley Nortcliffe,M,22,M_J_C_ABPU,Wraps,59.5,60,165,172.5,180,180,115,120,-125,120,195,207.5,212.5,212.5,512.5,SBD,1
James Martin,M,22,M_J_C_ABPU,Wraps,87.9,90,175,190,-200,190,115,122.5,127.5,127.5,200,210,222.5,222.5,540,SBD,1
Christian Sharp,M,22,M_J_R_ABPU,Raw,72.6,75,145,155,165,165,107.5,115,120,120,205,212.5,220,220,505,SBD,2
Jamie Routledge,M,20,M_J_R_ABPU,Raw,79.7,82.5,160,170,180,180,100,105,110,110,205,215,225,225,515,SBD,1
Chris Jennings,M,23,M_J_C_ABPU,Wraps,65.9,67.5,170,180,182.5,182.5,115,122.5,127.5,127.5,205,215,225,225,535,SBD,1
Joe Bastin,M,20,M_J_R_ABPU,Raw,73.7,75,140,155,170,170,100,107.5,110,110,-210,-220,227.5,227.5,507.5,SBD,1
Tom Bartholomew,M,23,M_J_C_ABPU,Wraps,93.8,100,200,210,220,220,120,135,140,140,210,225,240,240,600,SBD,1
Edward Holt,M,23,M_J_C_ABPU,Wraps,102.2,110,210,230,240,240,135,145,150,150,210,230,240,240,630,SBD,1
Ben Karaosman,M,21,M_J_S_ABPU,Single-ply,120.6,125,275,290,300,300,-180,185,190,190,220,240,250,250,740,SBD,1
Allen Davis,M,20,M_J_R_ABPU,Raw,127.6,140,,,,,,,,,260,280,300,300,300,D,1
Edwin Bosse,M,23,M_J_R_ABPU,Raw,115.3,125,220,-240,240,240,140,150,-155,150,270,280,290,290,680,SBD,1
Brandon Morgan,M,15,M_T2_R_ABPU,Raw,62.5,67.5,80,90,-100,90,50,60,-65,60,90,107.5,115,115,265,SBD,1
Eddie Thorpe,M,13,M_T1_R_ABPU,Raw,77.5,82.5,90,100,107.5,107.5,47.5,52.5,57.5,57.5,120,135,140,140,305,SBD,2
Mikey Newby,M,14,M_T1_R_ABPU,Raw,78,82.5,97.5,105,110,110,55,62.5,-65,62.5,-150,157.5,-160,157.5,330,SBD,1
Kiyan Tavanaie,M,19,M_T3_R_ABPU,Raw,59,60,130,135,140,140,95,97.5,-100,97.5,160,170,177.5,177.5,415,SBD,1
James Knight,M,18,M_T3_R_ABPU,Raw,90,90,125,135,145,145,120,-130,132.5,132.5,175,185,190,190,467.5,SBD,2
Sam Picknett,M,19,M_T3_R_ABPU,Raw,108,110,110,130,145,145,85,90,95,95,170,185,200,200,440,SBD,1
Connor Evans,M,16,M_T2_C_ABPU,Wraps,81.4,82.5,160,170,-180,170,100,-112.5,-112.5,100,170,185,200,200,470,SBD,1
Darius Stagner,M,17,M_T2_C_ABPU,Wraps,87.8,90,167.5,177.5,185,185,97.5,105,107.5,107.5,190,200,-207.5,200,492.5,SBD,1
Alex Thompson-Carse,M,16,M_T2_R_ABPU,Raw,85.2,90,-130,150,165,165,85,95,-105,95,175,200,210,210,470,SBD,1
Shane Gwyther,M,17,M_T2_R_ABPU,Raw,78.1,82.5,,,,,,,,,195,222.5,-230,222.5,,SBD,DQ
Tyler White,M,19,M_T3_R_ABPU,Raw,85.5,90,160,-180,-180,160,110,120,-125,120,210,220,-232.5,220,500,SBD,1
Freddie Isherwood,M,18,M_T3_C_ABPU,Wraps,87.2,90,210,222.5,227.5,227.5,100,105,-110,105,220,235,250,250,582.5,SBD,1
Morgan Williams,M,16,M_T2_R_ABPU,Raw,51.8,52,,,,,75,80,-87.5,80,,,,,80,B,1
Valerija Aliochina,F,22,F_J_R_ABPU,Raw,55.5,56,72.5,-80,-80,72.5,47.5,52.5,55,55,85,90,-95,90,217.5,SBD,1
Caomie Ludgate,F,21,F_J_R_ABPU,Raw,59,60,75,85,-92.5,85,50,52.5,-57.5,52.5,90,-100,105,105,242.5,SBD,2
Jodie Davies,F,22,F_J_R_ABPU,Raw,50.1,52,77.5,82.5,85,85,50,55,57.5,57.5,90,-112.5,-122.5,90,232.5,SBD,1
Jodie Davies,F,22,F_J_R_ABPU,Raw,50.1,52,,,,,50,55,57.5,57.5,,,,,57.5,B,1
Iwona Gibas,F,19,F_T3_C_ABPU,Wraps,57.8,60,95,100,102.5,102.5,50,52.5,,52.5,95,102.5,105,105,260,SBD,1
Judith Credland,F,23,F_J_C_ABPU,Wraps,55.3,56,30,40,50,50,25,30,-35,30,95,105,-110,105,185,SBD,1
Charlotte Brass,F,20,F_J_R_ABPU,Raw,73,75,77.5,82.5,87.5,87.5,45,47.5,-50,47.5,95,105,115,115,250,SBD,2
Jade Medhurst,F,16,F_T2_C_BPU,Wraps,67.5,67.5,80,85,-90,85,40,-42.5,-42.5,40,115,120,125,125,250,SBD,1
Gwennan Evans,F,21,F_J_R_ABPU,Raw,70.4,75,100,110,-120,110,50,55,60,60,115,125,130,130,300,SBD,1
Jessica Pallot,F,22,F_J_R_ABPU,Raw,59,60,90,-100,105,105,62.5,-67.5,67.5,67.5,120,130,132.5,132.5,305,SBD,1
Nigel Orme,M,57,M_M4_C_ABPU,Wraps,70.4,75,75,85,90,90,75,80,-87.5,80,130,140,145,145,315,SBD,1
Peter Hayden,M,55,M_M4_R_ABPU,Raw,92.3,100,120,130,140,140,90,100,-110,100,180,190,200,200,440,SBD,2
Andrew Kuttner,M,62,M_M5_R_ABPU,Raw,94,100,,,,,,,,,190,210,230,230,230,D,1
Richard Kemp,M,57,M_M4_R_ABPU,Raw,89.5,90,130,145,,145,85,-102.5,-102.5,85,200,220,-225,220,450,SBD,2
Eric Conway,M,55,M_M4_R_ABPU,Raw,89.1,90,165,175,182.5,182.5,115,120,-122.5,120,215,225,232.5,232.5,535,SBD,1
Andrew Moyler,M,56,M_M4_R_ABPU,Raw,97.4,100,175,190,205,205,125,135,-140,135,235,250,-255,250,590,SBD,1
Dana Smith,F,19,F_T3_R_ABPU,Raw,59.9,60,,,,,52.5,57.5,-62.5,57.5,,,,,57.5,B,1
Paul Baker,M,46,M_M2_R_ABPU,Raw,95.3,100,90,97.5,105,105,60,65,-67.5,65,140,150,157.5,157.5,327.5,SBD,2
John Miller,M,,M_M3_R_ABPU,Raw,99,100,,,,,,,,,155,170,182.5,182.5,182.5,D,1
Martin Hewlett,M,54,M_M3_R_ABPU,Raw,74.9,75,130,135,,135,110,-115,,110,160,180,-205,180,425,SBD,1
Robert Worthington,M,52,M_M3_R_ABPU,Raw,88.8,90,160,165,170,170,120,127.5,130,130,165,182.5,187.5,187.5,487.5,SBD,1
Robert Worthington,M,52,M_M3_R_ABPU,Raw,88.8,90,,,,,120,127.5,130,130,,,,,130,B,1
Robert Worthington,M,52,M_M3_R_ABPU,Raw,88.8,90,,,,,,,,,165,182.5,187.5,187.5,187.5,D,1
Munsoor Mohammed,M,49,M_M2_C_ABPU,Wraps,81.7,82.5,-160,160,-175,160,105,110,115,115,180,190,-200,190,465,SBD,2
Antony Roscoe,M,46,M_M2_C_ABPU,Wraps,81.8,82.5,-160,165,-175,165,90,105,-110,105,180,210,-230,210,480,SBD,1
Stephen Jefferies,M,47,M_M2_C_ABPU,Wraps,66.6,67.5,170,,180,180,115,120,122.5,122.5,190,200,202.5,202.5,505,SBD,1
Jan Hitchcock,M,51,M_M3_R_ABPU,Raw,97.8,100,200,210,220,220,165,175,-185,175,190,205,215,215,610,SBD,1
Darrell Swift,M,46,M_M2_C_ABPU,Wraps,72.1,75,170,185,-192.5,185,95,102.5,107.5,107.5,195,207.5,-215,207.5,500,SBD,1
Richard Baker,M,48,M_M2_C_ABPU,Wraps,105.9,110,185,200,207.5,207.5,135,142.5,-147.5,142.5,205,222.5,230,230,580,SBD,2
Adrian Phillips,M,54,M_M3_S_ABPU,Single-ply,95.4,100,200,215,-225,215,130,-137.5,-137.5,130,220,230,240,240,585,SBD,1
Ben Algar,M,41,M_M1_C_ABPU,Wraps,116.3,125,225,240,250,250,110,115,-120,115,225,240,245,245,610,SBD,2
Johnny Wade,M,49,M_M2_C_ABPU,Wraps,89.7,90,175,187.5,-192.5,187.5,130,135,-140,135,230,240,-250,240,562.5,SBD,1
Mark Lawford,M,44,M_M1_C_ABPU,Wraps,120.4,125,215,230,235,235,187.5,200,-202.5,200,230,250,-260,250,685,SBD,1
John Devlin,M,47,M_M2_R_ABPU,Raw,98,100,210,225,230,230,135,145,150,150,240,262.5,-270,262.5,642.5,SBD,1
Lee Mortimer,M,40,M_M1_R_ABPU,Raw,132.5,140,,,,,200,220,232.5,232.5,250,282.5,,282.5,515,BD,0
Steve Thresher,M,41,M_M1_R_ABPU,Raw,107.8,110,210,225,230,230,140,-147.5,-147.5,140,260,280,292.5,292.5,662.5,SBD,1
Sam Watt,M,47,M_M2_C_ABPU,Wraps,107.3,110,280,305,320,320,170,185,187.5,187.5,280,-300,,280,787.5,SBD,1
Richard Willis,M,49,M_M2_R_ABPU,Raw,50.6,52,,,,,-107.5,107.5,110,110,,,,,110,B,0
Paul Morgan,M,44,M_M1_S_ABPU,Single-ply,98.7,100,,,,,230,-240,-240,230,,,,,230,B,0
